%!PS-Adobe-2.0 EPSF-2.0
%%BoundingBox:  0 0 567 407
%%Title: Histograms.eps: Canvas: Min angle between L1 and jets
%%Creator: ROOT Version 5.30/01
%%CreationDate: Fri Aug 26 17:31:47 2011
%%EndComments
%%BeginProlog
80 dict begin
/s {stroke} def /l {lineto} def /m {moveto} def /t {translate} def
/r {rotate} def /rl {roll}  def /R {repeat} def
/d {rlineto} def /rm {rmoveto} def /gr {grestore} def /f {eofill} def
/c {setrgbcolor} def /black {0 setgray} def /sd {setdash} def
/cl {closepath} def /sf {scalefont setfont} def /lw {setlinewidth} def
/box {m dup 0 exch d exch 0 d 0 exch neg d cl} def
/NC{systemdict begin initclip end}def/C{NC box clip newpath}def
/bl {box s} def /bf {box f} def /Y { 0 exch d} def /X { 0 d} def 
/K {{pop pop 0 moveto} exch kshow} bind def
/ita {/ang 15 def gsave [1 0 ang dup sin exch cos div 1 0 0] concat} def 
/mp {newpath /y exch def /x exch def} def
/side {[w .77 mul w .23 mul] .385 w mul sd w 0 l currentpoint t -144 r} def
/mr {mp x y w2 0 360 arc} def /m24 {mr s} def /m20 {mr f} def
/mb {mp x y w2 add m w2 neg 0 d 0 w neg d w 0 d 0 w d cl} def
/mt {mp x y w2 add m w2 neg w neg d w 0 d cl} def
/m21 {mb f} def /m25 {mb s} def /m22 {mt f} def /m26{mt s} def
/m23 {mp x y w2 sub m w2 w d w neg 0 d cl f} def
/m27 {mp x y w2 add m w3 neg w2 neg d w3 w2 neg d w3 w2 d cl s} def
/m28 {mp x w2 sub y w2 sub w3 add m w3 0 d  0 w3 neg d w3 0 d 0 w3 d w3 0 d  0 w3 d w3 neg 0 d 0 w3 d w3 neg 0 d 0 w3 neg d w3 neg 0 d cl s } def
/m29 {mp gsave x w2 sub y w2 add w3 sub m currentpoint t 4 {side} repeat cl fill gr} def
/m30 {mp gsave x w2 sub y w2 add w3 sub m currentpoint t 4 {side} repeat cl s gr} def
/m31 {mp x y w2 sub m 0 w d x w2 sub y m w 0 d x w2 sub y w2 add m w w neg d x w2 sub y w2 sub m w w d s} def
/m32 {mp x y w2 sub m w2 w d w neg 0 d cl s} def
/m33 {mp x y w2 add m w3 neg w2 neg d w3 w2 neg d w3 w2 d cl f} def
/m34 {mp x w2 sub y w2 sub w3 add m w3 0 d  0 w3 neg d w3 0 d 0 w3 d w3 0 d  0 w3 d w3 neg 0 d 0 w3 d w3 neg 0 d 0 w3 neg d w3 neg 0 d cl f } def
/m2 {mp x y w2 sub m 0 w d x w2 sub y m w 0 d s} def
/m5 {mp x w2 sub y w2 sub m w w d x w2 sub y w2 add m w w neg d s} def
/reEncode {exch findfont dup length dict begin {1 index /FID eq  {pop pop} {def} ifelse } forall /Encoding exch def currentdict end dup /FontName get exch definefont pop } def [/Times-Bold /Times-Italic /Times-BoldItalic /Helvetica /Helvetica-Oblique
 /Helvetica-Bold /Helvetica-BoldOblique /Courier /Courier-Oblique /Courier-Bold /Courier-BoldOblique /Times-Roman /AvantGarde-Book /AvantGarde-BookOblique /AvantGarde-Demi /AvantGarde-DemiOblique /Bookman-Demi /Bookman-DemiItalic /Bookman-Light
 /Bookman-LightItalic /Helvetica-Narrow /Helvetica-Narrow-Bold /Helvetica-Narrow-BoldOblique /Helvetica-Narrow-Oblique /NewCenturySchlbk-Roman /NewCenturySchlbk-Bold /NewCenturySchlbk-BoldItalic /NewCenturySchlbk-Italic /Palatino-Bold
 /Palatino-BoldItalic /Palatino-Italic /Palatino-Roman ] {ISOLatin1Encoding reEncode } forall%%EndProlog
%%BeginSetup
%%EndSetup
newpath  gsave  .25 .25 scale  gsave  0 0 t black[  ] 0 sd 3 lw 1 1 1 c 2268 1630 0 0 bf black 1 1 1 c 710 782 23 831 bf black 1 1 1 c 568 626 94 909 bf black 568 626 94 909 bl 0 0 1 c 1 1 1 c black 0 0 1 c 122 969 m 47 Y s 122 1016 m 48 Y s 94 1016
 m 28 X s 122 1016 m 29 X s black /w 2 def /w2 {w 2 div} def /w3 {w 3 div} def 122 1016 m20 0 0 1 c 179 1074 m 71 Y s 179 1145 m 71 Y s 151 1145 m 28 X s 179 1145 m 28 X s black 179 1145 m20 0 0 1 c 236 1300 m 102 Y s 236 1402 m 103 Y s 207 1402 m 29
 X s 236 1402 m 28 X s black 236 1402 m20 0 0 1 c 293 1038 m 64 Y s 293 1102 m 65 Y s 264 1102 m 29 X s 293 1102 m 28 X s black 293 1102 m20 0 0 1 c 350 1185 m 89 Y s 350 1274 m 88 Y s 321 1274 m 29 X s 350 1274 m 28 X s black 350 1274 m20 0 0 1 c
 406 1261 m 99 Y s 406 1360 m 98 Y s 378 1360 m 28 X s 406 1360 m 29 X s black 406 1360 m20 0 0 1 c 463 1092 m 75 Y s 463 1167 m 74 Y s 435 1167 m 28 X s 463 1167 m 29 X s black 463 1167 m20 0 0 1 c 520 952 m 43 Y s 520 995 m 43 Y s 492 995 m 28 X s
 520 995 m 28 X s black 520 995 m20 94 909 m 568 X s 94 928 m -19 Y s 112 919 m -10 Y s 130 919 m -10 Y s 148 919 m -10 Y s 166 919 m -10 Y s 184 928 m -19 Y s 202 919 m -10 Y s 220 919 m -10 Y s 238 919 m -10 Y s 257 919 m -10 Y s 275 928 m -19 Y s
 293 919 m -10 Y s 311 919 m -10 Y s 329 919 m -10 Y s 347 919 m -10 Y s 365 928 m -19 Y s 383 919 m -10 Y s 401 919 m -10 Y s 419 919 m -10 Y s 438 919 m -10 Y s 456 928 m -19 Y s 474 919 m -10 Y s 492 919 m -10 Y s 510 919 m -10 Y s 528 919 m -10 Y
 s 546 928 m -19 Y s 564 919 m -10 Y s 582 919 m -10 Y s 600 919 m -10 Y s 618 919 m -10 Y s 637 928 m -19 Y s 637 928 m -19 Y s 655 919 m -10 Y s
 gsave  710 782 23 831 C 82.6178 886.005 t 0 r /Helvetica findfont 22.829 sf 0 0 m (0) show NC gr 
 gsave  710 782 23 831 C 165.236 886.005 t 0 r /Helvetica findfont 22.829 sf 0 0 m (0.5) show NC gr 
 gsave  710 782 23 831 C 267.796 886.005 t 0 r /Helvetica findfont 22.829 sf 0 0 m (1) show NC gr 
 gsave  710 782 23 831 C 347.565 886.005 t 0 r /Helvetica findfont 22.829 sf 0 0 m (1.5) show NC gr 
 gsave  710 782 23 831 C 444.427 886.005 t 0 r /Helvetica findfont 22.829 sf 0 0 m (2) show NC gr 
 gsave  710 782 23 831 C 527.045 886.005 t 0 r /Helvetica findfont 22.829 sf 0 0 m (2.5) show NC gr 
 gsave  710 782 23 831 C 626.756 886.005 t 0 r /Helvetica findfont 22.829 sf 0 0 m (3) show NC gr  94 909 m 626 Y s 111 909 m -17 X s 102 931 m -8 X s 102 952 m -8 X s 102 974 m -8 X s 102 995 m -8 X s 111 1016 m -17 X s 102 1038 m -8 X s 102 1059 m
 -8 X s 102 1081 m -8 X s 102 1102 m -8 X s 111 1124 m -17 X s 102 1145 m -8 X s 102 1167 m -8 X s 102 1188 m -8 X s 102 1209 m -8 X s 111 1231 m -17 X s 102 1252 m -8 X s 102 1274 m -8 X s 102 1295 m -8 X s 102 1317 m -8 X s 111 1338 m -17 X s 102
 1360 m -8 X s 102 1381 m -8 X s 102 1402 m -8 X s 102 1424 m -8 X s 111 1445 m -17 X s 111 1445 m -17 X s 102 1467 m -8 X s 102 1488 m -8 X s 102 1510 m -8 X s 102 1531 m -8 X s
 gsave  710 782 23 831 C 74.0711 903.098 t 0 r /Helvetica findfont 22.829 sf 0 0 m (0) show NC gr 
 gsave  710 782 23 831 C 74.0711 1008.51 t 0 r /Helvetica findfont 22.829 sf 0 0 m (5) show NC gr 
 gsave  710 782 23 831 C 62.6756 1116.76 t 0 r /Helvetica findfont 22.829 sf 0 0 m (10) show NC gr 
 gsave  710 782 23 831 C 62.6756 1225.02 t 0 r /Helvetica findfont 22.829 sf 0 0 m (15) show NC gr 
 gsave  710 782 23 831 C 62.6756 1330.43 t 0 r /Helvetica findfont 22.829 sf 0 0 m (20) show NC gr 
 gsave  710 782 23 831 C 62.6756 1438.69 t 0 r /Helvetica findfont 22.829 sf 0 0 m (25) show NC gr  1 1 1 c 498 44 129 1565 bf black
 gsave  710 782 23 831 C 139.596 1581.13 t 0 r /Helvetica findfont 25.6826 sf 0 0 m (Minimal angle between L1 and final quark) show NC gr  1 1 1 c 142 125 577 1437 bf black 577 1437 m 142 X s 719 1437 m 125 Y s 719 1562 m -142 X s 577 1562 m -125 Y s
 1 1 1 c black
 gsave  710 782 23 831 C 632.454 1535.55 t 0 r /Helvetica findfont 25.6826 sf 0 0 m (h3) show NC gr  577 1531 m 142 X s
 gsave  710 782 23 831 C 581.174 1507.06 t 0 r /Helvetica findfont 17.1217 sf 0 0 m (Entries ) show NC gr 
 gsave  710 782 23 831 C 675.187 1507.06 t 0 r /Helvetica findfont 17.1217 sf 0 0 m ( 102) show NC gr 
 gsave  710 782 23 831 C 581.174 1475.73 t 0 r /Helvetica findfont 17.1217 sf 0 0 m (Mean  ) show NC gr 
 gsave  710 782 23 831 C 655.245 1475.73 t 0 r /Helvetica findfont 17.1217 sf 0 0 m (  1.244) show NC gr 
 gsave  710 782 23 831 C 581.174 1444.39 t 0 r /Helvetica findfont 17.1217 sf 0 0 m (RMS   ) show NC gr 
 gsave  710 782 23 831 C 652.396 1444.39 t 0 r /Helvetica findfont 17.1217 sf 0 0 m ( 0.5905) show NC gr  1 0 0 c 1 1 1 c black 1 0 0 c 94 984 m 57 X 135 Y 56 X 96 Y 57 X 59 Y 57 X 42 Y 57 X -1 Y 57 X -95 Y 57 X -212 Y 56 X -89 Y 57 X -10 Y 57 X s
 black 1 1 1 c 498 44 129 1565 bf black
 gsave  710 782 23 831 C 139.596 1581.13 t 0 r /Helvetica findfont 25.6826 sf 0 0 m (Minimal angle between L1 and final quark) show NC gr  1 1 1 c 710 782 779 831 bf black 1 1 1 c 568 626 850 909 bf black 568 626 850 909 bl 0 0 1 c 1 1 1 c black 0 0
 1 c 878 918 m 21 Y s 878 939 m 21 Y s 850 939 m 28 X s 878 939 m 28 X s black 878 939 m20 0 0 1 c 935 951 m 33 Y s 935 984 m 34 Y s 906 984 m 29 X s 935 984 m 28 X s black 935 984 m20 0 0 1 c 992 1128 m 66 Y s 992 1194 m 65 Y s 963 1194 m 29 X s 992
 1194 m 28 X s black 992 1194 m20 0 0 1 c 1049 1331 m 87 Y s 1049 1418 m 87 Y s 1020 1418 m 29 X s 1049 1418 m 28 X s black 1049 1418 m20 0 0 1 c 1105 1115 m 64 Y s 1105 1179 m 63 Y s 1077 1179 m 28 X s 1105 1179 m 29 X s black 1105 1179 m20 0 0 1 c
 1162 1128 m 66 Y s 1162 1194 m 65 Y s 1134 1194 m 28 X s 1162 1194 m 29 X s black 1162 1194 m20 0 0 1 c 1219 939 m 30 Y s 1219 969 m 30 Y s 1191 969 m 28 X s 1219 969 m 29 X s black 1219 969 m20 0 0 1 c 1276 909 m 15 Y s 1276 924 m 15 Y s 1248 924 m
 28 X s 1276 924 m 28 X s black 1276 924 m20 850 909 m 568 X s 850 928 m -19 Y s 868 919 m -10 Y s 886 919 m -10 Y s 904 919 m -10 Y s 922 919 m -10 Y s 940 928 m -19 Y s 958 919 m -10 Y s 976 919 m -10 Y s 994 919 m -10 Y s 1012 919 m -10 Y s 1031
 928 m -19 Y s 1049 919 m -10 Y s 1067 919 m -10 Y s 1085 919 m -10 Y s 1103 919 m -10 Y s 1121 928 m -19 Y s 1139 919 m -10 Y s 1157 919 m -10 Y s 1175 919 m -10 Y s 1193 919 m -10 Y s 1212 928 m -19 Y s 1230 919 m -10 Y s 1248 919 m -10 Y s 1266
 919 m -10 Y s 1284 919 m -10 Y s 1302 928 m -19 Y s 1320 919 m -10 Y s 1338 919 m -10 Y s 1356 919 m -10 Y s 1374 919 m -10 Y s 1392 928 m -19 Y s 1392 928 m -19 Y s 1411 919 m -10 Y s
 gsave  710 782 779 831 C 840.423 886.005 t 0 r /Helvetica findfont 22.829 sf 0 0 m (0) show NC gr 
 gsave  710 782 779 831 C 920.192 886.005 t 0 r /Helvetica findfont 22.829 sf 0 0 m (0.5) show NC gr 
 gsave  710 782 779 831 C 1022.75 886.005 t 0 r /Helvetica findfont 22.829 sf 0 0 m (1) show NC gr 
 gsave  710 782 779 831 C 1102.52 886.005 t 0 r /Helvetica findfont 22.829 sf 0 0 m (1.5) show NC gr 
 gsave  710 782 779 831 C 1202.23 886.005 t 0 r /Helvetica findfont 22.829 sf 0 0 m (2) show NC gr 
 gsave  710 782 779 831 C 1284.85 886.005 t 0 r /Helvetica findfont 22.829 sf 0 0 m (2.5) show NC gr 
 gsave  710 782 779 831 C 1381.71 886.005 t 0 r /Helvetica findfont 22.829 sf 0 0 m (3) show NC gr  850 909 m 626 Y s 867 909 m -17 X s 858 924 m -8 X s 858 939 m -8 X s 858 954 m -8 X s 858 969 m -8 X s 867 984 m -17 X s 858 999 m -8 X s 858 1014 m
 -8 X s 858 1029 m -8 X s 858 1044 m -8 X s 867 1059 m -17 X s 858 1074 m -8 X s 858 1089 m -8 X s 858 1104 m -8 X s 858 1119 m -8 X s 867 1134 m -17 X s 858 1149 m -8 X s 858 1164 m -8 X s 858 1179 m -8 X s 858 1194 m -8 X s 867 1209 m -17 X s 858
 1224 m -8 X s 858 1238 m -8 X s 858 1253 m -8 X s 858 1268 m -8 X s 867 1283 m -17 X s 858 1298 m -8 X s 858 1313 m -8 X s 858 1328 m -8 X s 858 1343 m -8 X s 867 1358 m -17 X s 858 1373 m -8 X s 858 1388 m -8 X s 858 1403 m -8 X s 858 1418 m -8 X s
 867 1433 m -17 X s 858 1448 m -8 X s 858 1463 m -8 X s 858 1478 m -8 X s 858 1493 m -8 X s 867 1508 m -17 X s 867 1508 m -17 X s 858 1523 m -8 X s
 gsave  710 782 779 831 C 829.027 903.098 t 0 r /Helvetica findfont 22.829 sf 0 0 m (0) show NC gr 
 gsave  710 782 779 831 C 829.027 977.169 t 0 r /Helvetica findfont 22.829 sf 0 0 m (5) show NC gr 
 gsave  710 782 779 831 C 817.631 1051.24 t 0 r /Helvetica findfont 22.829 sf 0 0 m (10) show NC gr 
 gsave  710 782 779 831 C 817.631 1125.31 t 0 r /Helvetica findfont 22.829 sf 0 0 m (15) show NC gr 
 gsave  710 782 779 831 C 817.631 1202.23 t 0 r /Helvetica findfont 22.829 sf 0 0 m (20) show NC gr 
 gsave  710 782 779 831 C 817.631 1276.3 t 0 r /Helvetica findfont 22.829 sf 0 0 m (25) show NC gr 
 gsave  710 782 779 831 C 817.631 1350.37 t 0 r /Helvetica findfont 22.829 sf 0 0 m (30) show NC gr 
 gsave  710 782 779 831 C 817.631 1424.45 t 0 r /Helvetica findfont 22.829 sf 0 0 m (35) show NC gr 
 gsave  710 782 779 831 C 817.631 1501.37 t 0 r /Helvetica findfont 22.829 sf 0 0 m (40) show NC gr  1 1 1 c 498 44 885 1565 bf black
 gsave  710 782 779 831 C 897.4 1581.13 t 0 r /Helvetica findfont 25.6826 sf 0 0 m (Minimal angle between L2 and final quark) show NC gr  1 1 1 c 142 125 1333 1437 bf black 1333 1437 m 142 X s 1475 1437 m 125 Y s 1475 1562 m -142 X s 1333 1562 m -125
 Y s 1 1 1 c black
 gsave  710 782 779 831 C 1387.41 1535.55 t 0 r /Helvetica findfont 25.6826 sf 0 0 m (h4) show NC gr  1333 1531 m 142 X s
 gsave  710 782 779 831 C 1338.98 1507.06 t 0 r /Helvetica findfont 17.1217 sf 0 0 m (Entries ) show NC gr 
 gsave  710 782 779 831 C 1432.99 1507.06 t 0 r /Helvetica findfont 17.1217 sf 0 0 m ( 102) show NC gr 
 gsave  710 782 779 831 C 1338.98 1475.73 t 0 r /Helvetica findfont 17.1217 sf 0 0 m (Mean  ) show NC gr 
 gsave  710 782 779 831 C 1413.05 1475.73 t 0 r /Helvetica findfont 17.1217 sf 0 0 m (  1.205) show NC gr 
 gsave  710 782 779 831 C 1338.98 1444.39 t 0 r /Helvetica findfont 17.1217 sf 0 0 m (RMS   ) show NC gr 
 gsave  710 782 779 831 C 1410.2 1444.39 t 0 r /Helvetica findfont 17.1217 sf 0 0 m ( 0.4107) show NC gr  1 0 0 c 1 1 1 c black 1 0 0 c 850 950 m 56 X 94 Y 57 X 128 Y 57 X 154 Y 57 X 10 Y 57 X -235 Y 57 X -148 Y 57 X -35 Y 56 X -8 Y 57 X -1 Y 57 X s
 black 1 1 1 c 498 44 885 1565 bf black
 gsave  710 782 779 831 C 897.4 1581.13 t 0 r /Helvetica findfont 25.6826 sf 0 0 m (Minimal angle between L2 and final quark) show NC gr  1 1 1 c 711 782 1534 831 bf black 1 1 1 c 568 626 1606 909 bf black 568 626 1606 909 bl 0 0 1 c 1 1 1 c black 0
 0 1 c 1634 978 m 42 Y s 1634 1020 m 42 Y s 1606 1020 m 28 X s 1634 1020 m 28 X s black 1634 1020 m20 0 0 1 c 1691 1085 m 62 Y s 1691 1147 m 61 Y s 1662 1147 m 29 X s 1691 1147 m 28 X s black 1691 1147 m20 0 0 1 c 1748 1326 m 90 Y s 1748 1416 m 89 Y
 s 1719 1416 m 29 X s 1748 1416 m 28 X s black 1748 1416 m20 0 0 1 c 1804 1240 m 81 Y s 1804 1321 m 80 Y s 1776 1321 m 28 X s 1804 1321 m 29 X s black 1804 1321 m20 0 0 1 c 1861 1018 m 50 Y s 1861 1068 m 50 Y s 1833 1068 m 28 X s 1861 1068 m 29 X s
 black 1861 1068 m20 0 0 1 c 1918 1018 m 50 Y s 1918 1068 m 50 Y s 1890 1068 m 28 X s 1918 1068 m 29 X s black 1918 1068 m20 0 0 1 c 1975 909 m 16 Y s 1975 925 m 16 Y s 1947 925 m 28 X s 1975 925 m 28 X s black 1975 925 m20 0 0 1 c 2032 909 m 16 Y s
 2032 925 m 16 Y s 2003 925 m 29 X s 2032 925 m 28 X s black 2032 925 m20 1606 909 m 568 X s 1606 928 m -19 Y s 1624 919 m -10 Y s 1642 919 m -10 Y s 1660 919 m -10 Y s 1678 919 m -10 Y s 1696 928 m -19 Y s 1714 919 m -10 Y s 1732 919 m -10 Y s 1750
 919 m -10 Y s 1768 919 m -10 Y s 1786 928 m -19 Y s 1805 919 m -10 Y s 1823 919 m -10 Y s 1841 919 m -10 Y s 1859 919 m -10 Y s 1877 928 m -19 Y s 1895 919 m -10 Y s 1913 919 m -10 Y s 1931 919 m -10 Y s 1949 919 m -10 Y s 1967 928 m -19 Y s 1986
 919 m -10 Y s 2004 919 m -10 Y s 2022 919 m -10 Y s 2040 919 m -10 Y s 2058 928 m -19 Y s 2076 919 m -10 Y s 2094 919 m -10 Y s 2112 919 m -10 Y s 2130 919 m -10 Y s 2148 928 m -19 Y s 2148 928 m -19 Y s 2166 919 m -10 Y s
 gsave  711 782 1534 831 C 1595.38 886.005 t 0 r /Helvetica findfont 22.829 sf 0 0 m (0) show NC gr 
 gsave  711 782 1534 831 C 1678 886.005 t 0 r /Helvetica findfont 22.829 sf 0 0 m (0.5) show NC gr 
 gsave  711 782 1534 831 C 1780.56 886.005 t 0 r /Helvetica findfont 22.829 sf 0 0 m (1) show NC gr 
 gsave  711 782 1534 831 C 1857.48 886.005 t 0 r /Helvetica findfont 22.829 sf 0 0 m (1.5) show NC gr 
 gsave  711 782 1534 831 C 1957.19 886.005 t 0 r /Helvetica findfont 22.829 sf 0 0 m (2) show NC gr 
 gsave  711 782 1534 831 C 2039.81 886.005 t 0 r /Helvetica findfont 22.829 sf 0 0 m (2.5) show NC gr 
 gsave  711 782 1534 831 C 2139.52 886.005 t 0 r /Helvetica findfont 22.829 sf 0 0 m (3) show NC gr  1606 909 m 626 Y s 1623 909 m -17 X s 1614 925 m -8 X s 1614 941 m -8 X s 1614 957 m -8 X s 1614 973 m -8 X s 1623 988 m -17 X s 1614 1004 m -8 X s
 1614 1020 m -8 X s 1614 1036 m -8 X s 1614 1052 m -8 X s 1623 1068 m -17 X s 1614 1083 m -8 X s 1614 1099 m -8 X s 1614 1115 m -8 X s 1614 1131 m -8 X s 1623 1147 m -17 X s 1614 1163 m -8 X s 1614 1178 m -8 X s 1614 1194 m -8 X s 1614 1210 m -8 X s
 1623 1226 m -17 X s 1614 1242 m -8 X s 1614 1257 m -8 X s 1614 1273 m -8 X s 1614 1289 m -8 X s 1623 1305 m -17 X s 1614 1321 m -8 X s 1614 1337 m -8 X s 1614 1352 m -8 X s 1614 1368 m -8 X s 1623 1384 m -17 X s 1614 1400 m -8 X s 1614 1416 m -8 X s
 1614 1432 m -8 X s 1614 1447 m -8 X s 1623 1463 m -17 X s 1623 1463 m -17 X s 1614 1479 m -8 X s 1614 1495 m -8 X s 1614 1511 m -8 X s 1614 1527 m -8 X s
 gsave  711 782 1534 831 C 1586.83 903.098 t 0 r /Helvetica findfont 22.829 sf 0 0 m (0) show NC gr 
 gsave  711 782 1534 831 C 1586.83 980.018 t 0 r /Helvetica findfont 22.829 sf 0 0 m (5) show NC gr 
 gsave  711 782 1534 831 C 1575.44 1059.79 t 0 r /Helvetica findfont 22.829 sf 0 0 m (10) show NC gr 
 gsave  711 782 1534 831 C 1575.44 1139.56 t 0 r /Helvetica findfont 22.829 sf 0 0 m (15) show NC gr 
 gsave  711 782 1534 831 C 1575.44 1219.32 t 0 r /Helvetica findfont 22.829 sf 0 0 m (20) show NC gr 
 gsave  711 782 1534 831 C 1575.44 1299.09 t 0 r /Helvetica findfont 22.829 sf 0 0 m (25) show NC gr 
 gsave  711 782 1534 831 C 1575.44 1376.01 t 0 r /Helvetica findfont 22.829 sf 0 0 m (30) show NC gr 
 gsave  711 782 1534 831 C 1575.44 1455.78 t 0 r /Helvetica findfont 22.829 sf 0 0 m (35) show NC gr  1 1 1 c 497 44 1641 1565 bf black
 gsave  711 782 1534 831 C 1663.75 1581.13 t 0 r /Helvetica findfont 22.829 sf 0 0 m (Minimal angle between a lepton and a quark) show NC gr  1 1 1 c 142 125 2089 1437 bf black 2089 1437 m 142 X s 2231 1437 m 125 Y s 2231 1562 m -142 X s 2089 1562 m
 -125 Y s 1 1 1 c black
 gsave  711 782 1534 831 C 2136.67 1535.55 t 0 r /Helvetica findfont 25.6826 sf 0 0 m (h15) show NC gr  2089 1531 m 142 X s
 gsave  711 782 1534 831 C 2093.93 1507.06 t 0 r /Helvetica findfont 17.1217 sf 0 0 m (Entries ) show NC gr 
 gsave  711 782 1534 831 C 2187.95 1507.06 t 0 r /Helvetica findfont 17.1217 sf 0 0 m ( 102) show NC gr 
 gsave  711 782 1534 831 C 2093.93 1475.73 t 0 r /Helvetica findfont 17.1217 sf 0 0 m (Mean  ) show NC gr 
 gsave  711 782 1534 831 C 2165.16 1475.73 t 0 r /Helvetica findfont 17.1217 sf 0 0 m ( 0.9405) show NC gr 
 gsave  711 782 1534 831 C 2093.93 1444.39 t 0 r /Helvetica findfont 17.1217 sf 0 0 m (RMS   ) show NC gr 
 gsave  711 782 1534 831 C 2168.01 1444.39 t 0 r /Helvetica findfont 17.1217 sf 0 0 m ( 0.4371) show NC gr  1 0 0 c 1 1 1 c black 1 0 0 c 1606 1007 m 56 X 184 Y 57 X 140 Y 57 X 32 Y 57 X -197 Y 57 X -181 Y 57 X -54 Y 56 X -17 Y 57 X -4 Y 57 X -1 Y 57
 X s black 1 1 1 c 497 44 1641 1565 bf black
 gsave  711 782 1534 831 C 1663.75 1581.13 t 0 r /Helvetica findfont 22.829 sf 0 0 m (Minimal angle between a lepton and a quark) show NC gr  1 1 1 c 710 782 23 16 bf black 1 1 1 c 568 625 94 95 bf black 568 625 94 95 bl 0 0 1 c 1 1 1 c black 0 0 1 c
 406 441 m 87 Y s 406 528 m 86 Y s 378 528 m 28 X s 406 528 m 29 X s black 406 528 m20 0 0 1 c 463 504 m 93 Y s 463 597 m 93 Y s 435 597 m 28 X s 463 597 m 29 X s black 463 597 m20 0 0 1 c 520 472 m 90 Y s 520 562 m 91 Y s 492 562 m 28 X s 520 562 m
 28 X s black 520 562 m20 0 0 1 c 577 287 m 67 Y s 577 354 m 68 Y s 548 354 m 29 X s 577 354 m 28 X s black 577 354 m20 0 0 1 c 634 142 m 39 Y s 634 181 m 39 Y s 605 181 m 29 X s 634 181 m 28 X s black 634 181 m20 94 95 m 568 X s 94 113 m -18 Y s 105
 104 m -9 Y s 116 104 m -9 Y s 128 104 m -9 Y s 139 104 m -9 Y s 151 113 m -18 Y s 162 104 m -9 Y s 173 104 m -9 Y s 185 104 m -9 Y s 196 104 m -9 Y s 207 113 m -18 Y s 219 104 m -9 Y s 230 104 m -9 Y s 242 104 m -9 Y s 253 104 m -9 Y s 264 113 m -18
 Y s 276 104 m -9 Y s 287 104 m -9 Y s 298 104 m -9 Y s 310 104 m -9 Y s 321 113 m -18 Y s 332 104 m -9 Y s 344 104 m -9 Y s 355 104 m -9 Y s 367 104 m -9 Y s 378 113 m -18 Y s 389 104 m -9 Y s 401 104 m -9 Y s 412 104 m -9 Y s 423 104 m -9 Y s 435
 113 m -18 Y s 446 104 m -9 Y s 458 104 m -9 Y s 469 104 m -9 Y s 480 104 m -9 Y s 492 113 m -18 Y s 503 104 m -9 Y s 514 104 m -9 Y s 526 104 m -9 Y s 537 104 m -9 Y s 548 113 m -18 Y s 560 104 m -9 Y s 571 104 m -9 Y s 583 104 m -9 Y s 594 104 m -9
 Y s 605 113 m -18 Y s 617 104 m -9 Y s 628 104 m -9 Y s 639 104 m -9 Y s 651 104 m -9 Y s 662 113 m -18 Y s
 gsave  710 782 23 16 C 79.7689 71.2223 t 0 r /Helvetica findfont 22.829 sf 0 0 m (\2555) show NC gr 
 gsave  710 782 23 16 C 136.747 71.2223 t 0 r /Helvetica findfont 22.829 sf 0 0 m (\2554) show NC gr 
 gsave  710 782 23 16 C 193.725 71.2223 t 0 r /Helvetica findfont 22.829 sf 0 0 m (\2553) show NC gr 
 gsave  710 782 23 16 C 250.702 71.2223 t 0 r /Helvetica findfont 22.829 sf 0 0 m (\2552) show NC gr 
 gsave  710 782 23 16 C 310.529 71.2223 t 0 r /Helvetica findfont 22.829 sf 0 0 m (\2551) show NC gr 
 gsave  710 782 23 16 C 367.507 71.2223 t 0 r /Helvetica findfont 22.829 sf 0 0 m (0) show NC gr 
 gsave  710 782 23 16 C 427.334 71.2223 t 0 r /Helvetica findfont 22.829 sf 0 0 m (1) show NC gr 
 gsave  710 782 23 16 C 481.462 71.2223 t 0 r /Helvetica findfont 22.829 sf 0 0 m (2) show NC gr 
 gsave  710 782 23 16 C 538.44 71.2223 t 0 r /Helvetica findfont 22.829 sf 0 0 m (3) show NC gr 
 gsave  710 782 23 16 C 595.418 71.2223 t 0 r /Helvetica findfont 22.829 sf 0 0 m (4) show NC gr 
 gsave  710 782 23 16 C 652.396 71.2223 t 0 r /Helvetica findfont 22.829 sf 0 0 m (5) show NC gr  94 95 m 625 Y s 111 95 m -17 X s 102 112 m -8 X s 102 129 m -8 X s 102 147 m -8 X s 102 164 m -8 X s 111 181 m -17 X s 102 199 m -8 X s 102 216 m -8 X s
 102 233 m -8 X s 102 251 m -8 X s 111 268 m -17 X s 102 285 m -8 X s 102 302 m -8 X s 102 320 m -8 X s 102 337 m -8 X s 111 354 m -17 X s 102 372 m -8 X s 102 389 m -8 X s 102 406 m -8 X s 102 424 m -8 X s 111 441 m -17 X s 102 458 m -8 X s 102 476
 m -8 X s 102 493 m -8 X s 102 510 m -8 X s 111 528 m -17 X s 102 545 m -8 X s 102 562 m -8 X s 102 580 m -8 X s 102 597 m -8 X s 111 614 m -17 X s 102 632 m -8 X s 102 649 m -8 X s 102 666 m -8 X s 102 684 m -8 X s 111 701 m -17 X s 111 701 m -17 X
 s 102 718 m -8 X s
 gsave  710 782 23 16 C 74.0711 88.3156 t 0 r /Helvetica findfont 22.829 sf 0 0 m (0) show NC gr 
 gsave  710 782 23 16 C 74.0711 173.782 t 0 r /Helvetica findfont 22.829 sf 0 0 m (5) show NC gr 
 gsave  710 782 23 16 C 62.6756 262.098 t 0 r /Helvetica findfont 22.829 sf 0 0 m (10) show NC gr 
 gsave  710 782 23 16 C 62.6756 347.565 t 0 r /Helvetica findfont 22.829 sf 0 0 m (15) show NC gr 
 gsave  710 782 23 16 C 62.6756 433.031 t 0 r /Helvetica findfont 22.829 sf 0 0 m (20) show NC gr 
 gsave  710 782 23 16 C 62.6756 521.347 t 0 r /Helvetica findfont 22.829 sf 0 0 m (25) show NC gr 
 gsave  710 782 23 16 C 62.6756 606.814 t 0 r /Helvetica findfont 22.829 sf 0 0 m (30) show NC gr 
 gsave  710 782 23 16 C 62.6756 695.129 t 0 r /Helvetica findfont 22.829 sf 0 0 m (35) show NC gr  1 1 1 c 498 45 129 750 bf black
 gsave  710 782 23 16 C 150.991 766.351 t 0 r /Helvetica findfont 22.829 sf 0 0 m (Eta\255phi distance between L1 and final quark ) show NC gr  1 1 1 c 142 126 577 622 bf black 577 622 m 142 X s 719 622 m 126 Y s 719 748 m -142 X s 577 748 m -126 Y s
 1 1 1 c black
 gsave  710 782 23 16 C 623.907 720.769 t 0 r /Helvetica findfont 25.6826 sf 0 0 m (h18) show NC gr  577 716 m 142 X s
 gsave  710 782 23 16 C 581.174 692.28 t 0 r /Helvetica findfont 19.9753 sf 0 0 m (Entries ) show NC gr 
 gsave  710 782 23 16 C 669.489 692.28 t 0 r /Helvetica findfont 19.9753 sf 0 0 m ( 102) show NC gr 
 gsave  710 782 23 16 C 581.174 660.943 t 0 r /Helvetica findfont 19.9753 sf 0 0 m (Mean  ) show NC gr 
 gsave  710 782 23 16 C 646.698 660.943 t 0 r /Helvetica findfont 19.9753 sf 0 0 m (  1.978) show NC gr 
 gsave  710 782 23 16 C 581.174 629.605 t 0 r /Helvetica findfont 19.9753 sf 0 0 m (RMS   ) show NC gr 
 gsave  710 782 23 16 C 646.698 629.605 t 0 r /Helvetica findfont 19.9753 sf 0 0 m (  1.104) show NC gr  1 0 0 c 1 1 1 c black 1 0 0 c 94 95 m 284 X 261 Y 57 X 268 Y 57 X 43 Y 56 X -265 Y 57 X -228 Y 57 X s black 1 1 1 c 498 45 129 750 bf black
 gsave  710 782 23 16 C 150.991 766.351 t 0 r /Helvetica findfont 22.829 sf 0 0 m (Eta\255phi distance between L1 and final quark ) show NC gr  1 1 1 c 710 782 779 16 bf black 1 1 1 c 568 625 850 95 bf black 568 625 850 95 bl 0 0 1 c 1 1 1 c black 0
 0 1 c 1162 245 m 44 Y s 1162 289 m 45 Y s 1134 289 m 28 X s 1162 289 m 29 X s black 1162 289 m20 0 0 1 c 1219 544 m 73 Y s 1219 617 m 73 Y s 1191 617 m 28 X s 1219 617 m 29 X s black 1219 617 m20 0 0 1 c 1276 309 m 52 Y s 1276 361 m 52 Y s 1248 361
 m 28 X s 1276 361 m 28 X s black 1276 361 m20 0 0 1 c 1333 131 m 25 Y s 1333 156 m 25 Y s 1304 156 m 29 X s 1333 156 m 28 X s black 1333 156 m20 850 95 m 568 X s 850 113 m -18 Y s 861 104 m -9 Y s 872 104 m -9 Y s 884 104 m -9 Y s 895 104 m -9 Y s
 906 113 m -18 Y s 918 104 m -9 Y s 929 104 m -9 Y s 941 104 m -9 Y s 952 104 m -9 Y s 963 113 m -18 Y s 975 104 m -9 Y s 986 104 m -9 Y s 997 104 m -9 Y s 1009 104 m -9 Y s 1020 113 m -18 Y s 1032 104 m -9 Y s 1043 104 m -9 Y s 1054 104 m -9 Y s
 1066 104 m -9 Y s 1077 113 m -18 Y s 1088 104 m -9 Y s 1100 104 m -9 Y s 1111 104 m -9 Y s 1122 104 m -9 Y s 1134 113 m -18 Y s 1145 104 m -9 Y s 1157 104 m -9 Y s 1168 104 m -9 Y s 1179 104 m -9 Y s 1191 113 m -18 Y s 1202 104 m -9 Y s 1213 104 m
 -9 Y s 1225 104 m -9 Y s 1236 104 m -9 Y s 1248 113 m -18 Y s 1259 104 m -9 Y s 1270 104 m -9 Y s 1282 104 m -9 Y s 1293 104 m -9 Y s 1304 113 m -18 Y s 1316 104 m -9 Y s 1327 104 m -9 Y s 1338 104 m -9 Y s 1350 104 m -9 Y s 1361 113 m -18 Y s 1373
 104 m -9 Y s 1384 104 m -9 Y s 1395 104 m -9 Y s 1407 104 m -9 Y s 1418 113 m -18 Y s
 gsave  710 782 779 16 C 837.574 71.2223 t 0 r /Helvetica findfont 22.829 sf 0 0 m (\2555) show NC gr 
 gsave  710 782 779 16 C 894.552 71.2223 t 0 r /Helvetica findfont 22.829 sf 0 0 m (\2554) show NC gr 
 gsave  710 782 779 16 C 951.529 71.2223 t 0 r /Helvetica findfont 22.829 sf 0 0 m (\2553) show NC gr 
 gsave  710 782 779 16 C 1008.51 71.2223 t 0 r /Helvetica findfont 22.829 sf 0 0 m (\2552) show NC gr 
 gsave  710 782 779 16 C 1068.33 71.2223 t 0 r /Helvetica findfont 22.829 sf 0 0 m (\2551) show NC gr 
 gsave  710 782 779 16 C 1125.31 71.2223 t 0 r /Helvetica findfont 22.829 sf 0 0 m (0) show NC gr 
 gsave  710 782 779 16 C 1182.29 71.2223 t 0 r /Helvetica findfont 22.829 sf 0 0 m (1) show NC gr 
 gsave  710 782 779 16 C 1236.42 71.2223 t 0 r /Helvetica findfont 22.829 sf 0 0 m (2) show NC gr 
 gsave  710 782 779 16 C 1293.4 71.2223 t 0 r /Helvetica findfont 22.829 sf 0 0 m (3) show NC gr 
 gsave  710 782 779 16 C 1350.37 71.2223 t 0 r /Helvetica findfont 22.829 sf 0 0 m (4) show NC gr 
 gsave  710 782 779 16 C 1407.35 71.2223 t 0 r /Helvetica findfont 22.829 sf 0 0 m (5) show NC gr  850 95 m 625 Y s 867 95 m -17 X s 858 115 m -8 X s 858 136 m -8 X s 858 156 m -8 X s 858 177 m -8 X s 867 197 m -17 X s 858 218 m -8 X s 858 238 m -8 X
 s 858 259 m -8 X s 858 279 m -8 X s 867 300 m -17 X s 858 320 m -8 X s 858 341 m -8 X s 858 361 m -8 X s 858 382 m -8 X s 867 402 m -17 X s 858 423 m -8 X s 858 443 m -8 X s 858 464 m -8 X s 858 484 m -8 X s 867 505 m -17 X s 858 525 m -8 X s 858
 546 m -8 X s 858 566 m -8 X s 858 587 m -8 X s 867 607 m -17 X s 858 628 m -8 X s 858 648 m -8 X s 858 669 m -8 X s 858 689 m -8 X s 867 710 m -17 X s 867 710 m -17 X s
 gsave  710 782 779 16 C 829.027 88.3156 t 0 r /Helvetica findfont 22.829 sf 0 0 m (0) show NC gr 
 gsave  710 782 779 16 C 817.631 190.876 t 0 r /Helvetica findfont 22.829 sf 0 0 m (10) show NC gr 
 gsave  710 782 779 16 C 817.631 293.436 t 0 r /Helvetica findfont 22.829 sf 0 0 m (20) show NC gr 
 gsave  710 782 779 16 C 817.631 395.996 t 0 r /Helvetica findfont 22.829 sf 0 0 m (30) show NC gr 
 gsave  710 782 779 16 C 817.631 498.556 t 0 r /Helvetica findfont 22.829 sf 0 0 m (40) show NC gr 
 gsave  710 782 779 16 C 817.631 601.116 t 0 r /Helvetica findfont 22.829 sf 0 0 m (50) show NC gr 
 gsave  710 782 779 16 C 817.631 703.676 t 0 r /Helvetica findfont 22.829 sf 0 0 m (60) show NC gr  1 1 1 c 498 45 885 750 bf black
 gsave  710 782 779 16 C 908.796 766.351 t 0 r /Helvetica findfont 22.829 sf 0 0 m (Eta\255phi distance between L2 and final quark ) show NC gr  1 1 1 c 142 126 1333 622 bf black 1333 622 m 142 X s 1475 622 m 126 Y s 1475 748 m -142 X s 1333 748 m
 -126 Y s 1 1 1 c black
 gsave  710 782 779 16 C 1378.86 720.769 t 0 r /Helvetica findfont 25.6826 sf 0 0 m (h19) show NC gr  1333 716 m 142 X s
 gsave  710 782 779 16 C 1338.98 692.28 t 0 r /Helvetica findfont 17.1217 sf 0 0 m (Entries ) show NC gr 
 gsave  710 782 779 16 C 1432.99 692.28 t 0 r /Helvetica findfont 17.1217 sf 0 0 m ( 102) show NC gr 
 gsave  710 782 779 16 C 1338.98 660.943 t 0 r /Helvetica findfont 17.1217 sf 0 0 m (Mean  ) show NC gr 
 gsave  710 782 779 16 C 1413.05 660.943 t 0 r /Helvetica findfont 17.1217 sf 0 0 m (  1.726) show NC gr 
 gsave  710 782 779 16 C 1338.98 629.605 t 0 r /Helvetica findfont 17.1217 sf 0 0 m (RMS   ) show NC gr 
 gsave  710 782 779 16 C 1410.2 629.605 t 0 r /Helvetica findfont 17.1217 sf 0 0 m ( 0.7479) show NC gr  1 0 0 c 1 1 1 c black 1 0 0 c 850 95 m 284 X 179 Y 57 X 322 Y 57 X -240 Y 56 X -178 Y 57 X -64 Y 57 X s black 1 1 1 c 498 45 885 750 bf black
 gsave  710 782 779 16 C 908.796 766.351 t 0 r /Helvetica findfont 22.829 sf 0 0 m (Eta\255phi distance between L2 and final quark ) show NC gr  1 1 1 c 711 782 1534 16 bf black 1 1 1 c 568 625 1606 95 bf black 568 625 1606 95 bl 0 0 1 c 1 1 1 c
 black 0 0 1 c 1918 464 m 71 Y s 1918 535 m 70 Y s 1890 535 m 28 X s 1918 535 m 29 X s black 1918 535 m20 0 0 1 c 1975 537 m 77 Y s 1975 614 m 76 Y s 1947 614 m 28 X s 1975 614 m 28 X s black 1975 614 m20 0 0 1 c 2032 220 m 44 Y s 2032 264 m 44 Y s
 2003 264 m 29 X s 2032 264 m 28 X s black 2032 264 m20 0 0 1 c 2089 101 m 16 Y s 2089 117 m 16 Y s 2060 117 m 29 X s 2089 117 m 28 X s black 2089 117 m20 1606 95 m 568 X s 1606 113 m -18 Y s 1617 104 m -9 Y s 1628 104 m -9 Y s 1640 104 m -9 Y s 1651
 104 m -9 Y s 1662 113 m -18 Y s 1674 104 m -9 Y s 1685 104 m -9 Y s 1696 104 m -9 Y s 1708 104 m -9 Y s 1719 113 m -18 Y s 1731 104 m -9 Y s 1742 104 m -9 Y s 1753 104 m -9 Y s 1765 104 m -9 Y s 1776 113 m -18 Y s 1787 104 m -9 Y s 1799 104 m -9 Y s
 1810 104 m -9 Y s 1822 104 m -9 Y s 1833 113 m -18 Y s 1844 104 m -9 Y s 1856 104 m -9 Y s 1867 104 m -9 Y s 1878 104 m -9 Y s 1890 113 m -18 Y s 1901 104 m -9 Y s 1913 104 m -9 Y s 1924 104 m -9 Y s 1935 104 m -9 Y s 1947 113 m -18 Y s 1958 104 m
 -9 Y s 1969 104 m -9 Y s 1981 104 m -9 Y s 1992 104 m -9 Y s 2003 113 m -18 Y s 2015 104 m -9 Y s 2026 104 m -9 Y s 2038 104 m -9 Y s 2049 104 m -9 Y s 2060 113 m -18 Y s 2072 104 m -9 Y s 2083 104 m -9 Y s 2094 104 m -9 Y s 2106 104 m -9 Y s 2117
 113 m -18 Y s 2129 104 m -9 Y s 2140 104 m -9 Y s 2151 104 m -9 Y s 2163 104 m -9 Y s 2174 113 m -18 Y s
 gsave  711 782 1534 16 C 1592.53 71.2223 t 0 r /Helvetica findfont 22.829 sf 0 0 m (\2555) show NC gr 
 gsave  711 782 1534 16 C 1649.51 71.2223 t 0 r /Helvetica findfont 22.829 sf 0 0 m (\2554) show NC gr 
 gsave  711 782 1534 16 C 1706.49 71.2223 t 0 r /Helvetica findfont 22.829 sf 0 0 m (\2553) show NC gr 
 gsave  711 782 1534 16 C 1763.46 71.2223 t 0 r /Helvetica findfont 22.829 sf 0 0 m (\2552) show NC gr 
 gsave  711 782 1534 16 C 1823.29 71.2223 t 0 r /Helvetica findfont 22.829 sf 0 0 m (\2551) show NC gr 
 gsave  711 782 1534 16 C 1880.27 71.2223 t 0 r /Helvetica findfont 22.829 sf 0 0 m (0) show NC gr 
 gsave  711 782 1534 16 C 1940.09 71.2223 t 0 r /Helvetica findfont 22.829 sf 0 0 m (1) show NC gr 
 gsave  711 782 1534 16 C 1994.22 71.2223 t 0 r /Helvetica findfont 22.829 sf 0 0 m (2) show NC gr 
 gsave  711 782 1534 16 C 2051.2 71.2223 t 0 r /Helvetica findfont 22.829 sf 0 0 m (3) show NC gr 
 gsave  711 782 1534 16 C 2108.18 71.2223 t 0 r /Helvetica findfont 22.829 sf 0 0 m (4) show NC gr 
 gsave  711 782 1534 16 C 2165.16 71.2223 t 0 r /Helvetica findfont 22.829 sf 0 0 m (5) show NC gr  1606 95 m 625 Y s 1623 95 m -17 X s 1614 117 m -8 X s 1614 140 m -8 X s 1614 162 m -8 X s 1614 185 m -8 X s 1623 207 m -17 X s 1614 230 m -8 X s 1614
 253 m -8 X s 1614 275 m -8 X s 1614 298 m -8 X s 1623 320 m -17 X s 1614 343 m -8 X s 1614 365 m -8 X s 1614 388 m -8 X s 1614 411 m -8 X s 1623 433 m -17 X s 1614 456 m -8 X s 1614 478 m -8 X s 1614 501 m -8 X s 1614 524 m -8 X s 1623 546 m -17 X s
 1614 569 m -8 X s 1614 591 m -8 X s 1614 614 m -8 X s 1614 636 m -8 X s 1623 659 m -17 X s 1623 659 m -17 X s 1614 682 m -8 X s 1614 704 m -8 X s
 gsave  711 782 1534 16 C 1586.83 88.3156 t 0 r /Helvetica findfont 22.829 sf 0 0 m (0) show NC gr 
 gsave  711 782 1534 16 C 1575.44 199.422 t 0 r /Helvetica findfont 22.829 sf 0 0 m (10) show NC gr 
 gsave  711 782 1534 16 C 1575.44 313.378 t 0 r /Helvetica findfont 22.829 sf 0 0 m (20) show NC gr 
 gsave  711 782 1534 16 C 1575.44 427.334 t 0 r /Helvetica findfont 22.829 sf 0 0 m (30) show NC gr 
 gsave  711 782 1534 16 C 1575.44 538.44 t 0 r /Helvetica findfont 22.829 sf 0 0 m (40) show NC gr 
 gsave  711 782 1534 16 C 1575.44 652.396 t 0 r /Helvetica findfont 22.829 sf 0 0 m (50) show NC gr  1 1 1 c 497 45 1641 750 bf black
 gsave  711 782 1534 16 C 1666.6 766.351 t 0 r /Helvetica findfont 19.9753 sf 0 0 m (Eta\255phi distance between a lepton and final quark ) show NC gr  1 1 1 c 142 126 2089 622 bf black 2089 622 m 142 X s 2231 622 m 126 Y s 2231 748 m -142 X s 2089
 748 m -126 Y s 1 1 1 c black
 gsave  711 782 1534 16 C 2136.67 720.769 t 0 r /Helvetica findfont 25.6826 sf 0 0 m (h20) show NC gr  2089 716 m 142 X s
 gsave  711 782 1534 16 C 2093.93 692.28 t 0 r /Helvetica findfont 17.1217 sf 0 0 m (Entries ) show NC gr 
 gsave  711 782 1534 16 C 2187.95 692.28 t 0 r /Helvetica findfont 17.1217 sf 0 0 m ( 102) show NC gr 
 gsave  711 782 1534 16 C 2093.93 660.943 t 0 r /Helvetica findfont 17.1217 sf 0 0 m (Mean  ) show NC gr 
 gsave  711 782 1534 16 C 2168.01 660.943 t 0 r /Helvetica findfont 17.1217 sf 0 0 m (  1.347) show NC gr 
 gsave  711 782 1534 16 C 2093.93 629.605 t 0 r /Helvetica findfont 17.1217 sf 0 0 m (RMS   ) show NC gr 
 gsave  711 782 1534 16 C 2165.16 629.605 t 0 r /Helvetica findfont 17.1217 sf 0 0 m ( 0.7013) show NC gr  1 0 0 c 1 1 1 c black 1 0 0 c 1606 95 m 284 X 339 Y 57 X 227 Y 56 X -356 Y 57 X -176 Y 57 X -34 Y 57 X s black 1 1 1 c 497 45 1641 750 bf black
 gsave  711 782 1534 16 C 1666.6 766.351 t 0 r /Helvetica findfont 19.9753 sf 0 0 m (Eta\255phi distance between a lepton and final quark ) show NC gr 
 gr  gr showpage
end
%%EOF
