%!PS-Adobe-2.0 EPSF-2.0
%%BoundingBox:  0 0 567 513
%%Title: : Canvas: Min angle between L1 and jets
%%Creator: ROOT Version 5.30/01
%%CreationDate: Tue Sep 20 22:58:10 2011
%%EndComments
%%BeginProlog
80 dict begin
/s {stroke} def /l {lineto} def /m {moveto} def /t {translate} def
/r {rotate} def /rl {roll}  def /R {repeat} def
/d {rlineto} def /rm {rmoveto} def /gr {grestore} def /f {eofill} def
/c {setrgbcolor} def /black {0 setgray} def /sd {setdash} def
/cl {closepath} def /sf {scalefont setfont} def /lw {setlinewidth} def
/box {m dup 0 exch d exch 0 d 0 exch neg d cl} def
/NC{systemdict begin initclip end}def/C{NC box clip newpath}def
/bl {box s} def /bf {box f} def /Y { 0 exch d} def /X { 0 d} def 
/K {{pop pop 0 moveto} exch kshow} bind def
/ita {/ang 15 def gsave [1 0 ang dup sin exch cos div 1 0 0] concat} def 
/mp {newpath /y exch def /x exch def} def
/side {[w .77 mul w .23 mul] .385 w mul sd w 0 l currentpoint t -144 r} def
/mr {mp x y w2 0 360 arc} def /m24 {mr s} def /m20 {mr f} def
/mb {mp x y w2 add m w2 neg 0 d 0 w neg d w 0 d 0 w d cl} def
/mt {mp x y w2 add m w2 neg w neg d w 0 d cl} def
/m21 {mb f} def /m25 {mb s} def /m22 {mt f} def /m26{mt s} def
/m23 {mp x y w2 sub m w2 w d w neg 0 d cl f} def
/m27 {mp x y w2 add m w3 neg w2 neg d w3 w2 neg d w3 w2 d cl s} def
/m28 {mp x w2 sub y w2 sub w3 add m w3 0 d  0 w3 neg d w3 0 d 0 w3 d w3 0 d  0 w3 d w3 neg 0 d 0 w3 d w3 neg 0 d 0 w3 neg d w3 neg 0 d cl s } def
/m29 {mp gsave x w2 sub y w2 add w3 sub m currentpoint t 4 {side} repeat cl fill gr} def
/m30 {mp gsave x w2 sub y w2 add w3 sub m currentpoint t 4 {side} repeat cl s gr} def
/m31 {mp x y w2 sub m 0 w d x w2 sub y m w 0 d x w2 sub y w2 add m w w neg d x w2 sub y w2 sub m w w d s} def
/m32 {mp x y w2 sub m w2 w d w neg 0 d cl s} def
/m33 {mp x y w2 add m w3 neg w2 neg d w3 w2 neg d w3 w2 d cl f} def
/m34 {mp x w2 sub y w2 sub w3 add m w3 0 d  0 w3 neg d w3 0 d 0 w3 d w3 0 d  0 w3 d w3 neg 0 d 0 w3 d w3 neg 0 d 0 w3 neg d w3 neg 0 d cl f } def
/m2 {mp x y w2 sub m 0 w d x w2 sub y m w 0 d s} def
/m5 {mp x w2 sub y w2 sub m w w d x w2 sub y w2 add m w w neg d s} def
/reEncode {exch findfont dup length dict begin {1 index /FID eq  {pop pop} {def} ifelse } forall /Encoding exch def currentdict end dup /FontName get exch definefont pop } def [/Times-Bold /Times-Italic /Times-BoldItalic /Helvetica /Helvetica-Oblique
 /Helvetica-Bold /Helvetica-BoldOblique /Courier /Courier-Oblique /Courier-Bold /Courier-BoldOblique /Times-Roman /AvantGarde-Book /AvantGarde-BookOblique /AvantGarde-Demi /AvantGarde-DemiOblique /Bookman-Demi /Bookman-DemiItalic /Bookman-Light
 /Bookman-LightItalic /Helvetica-Narrow /Helvetica-Narrow-Bold /Helvetica-Narrow-BoldOblique /Helvetica-Narrow-Oblique /NewCenturySchlbk-Roman /NewCenturySchlbk-Bold /NewCenturySchlbk-BoldItalic /NewCenturySchlbk-Italic /Palatino-Bold
 /Palatino-BoldItalic /Palatino-Italic /Palatino-Roman ] {ISOLatin1Encoding reEncode } forall%%EndProlog
%%BeginSetup
%%EndSetup
newpath  gsave  .25 .25 scale  gsave  0 0 t black[  ] 0 sd 3 lw 1 1 1 c 2268 2051 0 0 bf black 1 1 1 c 710 985 23 1046 bf black 1 1 1 c 568 787 94 1145 bf black 568 787 94 1145 bl 1 1 1 c 568 787 94 1145 bf black 568 787 94 1145 bl 0 0 1 c 1 1 1 c
 black 0 0 1 c 122 1170 m 21 Y s 122 1191 m 20 Y s 94 1191 m 28 X s 122 1191 m 29 X s black /w 2 def /w2 {w 2 div} def /w3 {w 3 div} def 122 1191 m20 0 0 1 c 179 1345 m 48 Y s 179 1393 m 48 Y s 151 1393 m 28 X s 179 1393 m 28 X s black 179 1393 m20 0
 0 1 c 236 1345 m 48 Y s 236 1393 m 48 Y s 207 1393 m 29 X s 236 1393 m 28 X s black 236 1393 m20 0 0 1 c 293 1694 m 76 Y s 293 1770 m 76 Y s 264 1770 m 29 X s 293 1770 m 28 X s black 293 1770 m20 0 0 1 c 350 1625 m 72 Y s 350 1697 m 71 Y s 321 1697
 m 29 X s 350 1697 m 28 X s black 350 1697 m20 0 0 1 c 406 1738 m 78 Y s 406 1816 m 79 Y s 378 1816 m 28 X s 406 1816 m 29 X s black 406 1816 m20 0 0 1 c 463 1677 m 75 Y s 463 1752 m 74 Y s 435 1752 m 28 X s 463 1752 m 29 X s black 463 1752 m20 0 0 1
 c 520 1329 m 46 Y s 520 1375 m 46 Y s 492 1375 m 28 X s 520 1375 m 28 X s black 520 1375 m20 0 0 1 c 577 1170 m 21 Y s 577 1191 m 20 Y s 548 1191 m 29 X s 577 1191 m 28 X s black 577 1191 m20 0 0 1 c 634 1145 m 9 Y s 634 1154 m 9 Y s 605 1154 m 29 X
 s 634 1154 m 28 X s black 634 1154 m20 1 1 1 c 142 158 577 1809 bf black 577 1809 m 142 X s 719 1809 m 158 Y s 719 1967 m -142 X s 577 1967 m -158 Y s 1 1 1 c black
 gsave  710 985 23 1046 C 632.454 1937.25 t 0 r /Helvetica findfont 25.6826 sf 0 0 m (h3) show NC gr  577 1927 m 142 X s
 gsave  710 985 23 1046 C 581.174 1900.21 t 0 r /Helvetica findfont 17.1217 sf 0 0 m (Entries ) show NC gr 
 gsave  710 985 23 1046 C 675.187 1900.21 t 0 r /Helvetica findfont 17.1217 sf 0 0 m ( 357) show NC gr 
 gsave  710 985 23 1046 C 581.174 1860.33 t 0 r /Helvetica findfont 17.1217 sf 0 0 m (Mean  ) show NC gr 
 gsave  710 985 23 1046 C 655.245 1860.33 t 0 r /Helvetica findfont 17.1217 sf 0 0 m (  1.487) show NC gr 
 gsave  710 985 23 1046 C 581.174 1820.44 t 0 r /Helvetica findfont 17.1217 sf 0 0 m (RMS   ) show NC gr 
 gsave  710 985 23 1046 C 652.396 1820.44 t 0 r /Helvetica findfont 17.1217 sf 0 0 m ( 0.5507) show NC gr  94 1145 m 568 X s 94 1168 m -23 Y s 112 1156 m -11 Y s 130 1156 m -11 Y s 148 1156 m -11 Y s 166 1156 m -11 Y s 184 1168 m -23 Y s 202 1156 m
 -11 Y s 220 1156 m -11 Y s 238 1156 m -11 Y s 257 1156 m -11 Y s 275 1168 m -23 Y s 293 1156 m -11 Y s 311 1156 m -11 Y s 329 1156 m -11 Y s 347 1156 m -11 Y s 365 1168 m -23 Y s 383 1156 m -11 Y s 401 1156 m -11 Y s 419 1156 m -11 Y s 438 1156 m
 -11 Y s 456 1168 m -23 Y s 474 1156 m -11 Y s 492 1156 m -11 Y s 510 1156 m -11 Y s 528 1156 m -11 Y s 546 1168 m -23 Y s 564 1156 m -11 Y s 582 1156 m -11 Y s 600 1156 m -11 Y s 618 1156 m -11 Y s 637 1168 m -23 Y s 637 1168 m -23 Y s 655 1156 m
 -11 Y s
 gsave  710 985 23 1046 C 82.6178 1113.92 t 0 r /Helvetica findfont 22.829 sf 0 0 m (0) show NC gr 
 gsave  710 985 23 1046 C 165.236 1113.92 t 0 r /Helvetica findfont 22.829 sf 0 0 m (0.5) show NC gr 
 gsave  710 985 23 1046 C 267.796 1113.92 t 0 r /Helvetica findfont 22.829 sf 0 0 m (1) show NC gr 
 gsave  710 985 23 1046 C 347.565 1113.92 t 0 r /Helvetica findfont 22.829 sf 0 0 m (1.5) show NC gr 
 gsave  710 985 23 1046 C 444.427 1113.92 t 0 r /Helvetica findfont 22.829 sf 0 0 m (2) show NC gr 
 gsave  710 985 23 1046 C 527.045 1113.92 t 0 r /Helvetica findfont 22.829 sf 0 0 m (2.5) show NC gr 
 gsave  710 985 23 1046 C 626.756 1113.92 t 0 r /Helvetica findfont 22.829 sf 0 0 m (3) show NC gr  94 1145 m 787 Y s 111 1145 m -17 X s 102 1163 m -8 X s 102 1181 m -8 X s 102 1200 m -8 X s 102 1218 m -8 X s 111 1237 m -17 X s 102 1255 m -8 X s 102
 1273 m -8 X s 102 1292 m -8 X s 102 1310 m -8 X s 111 1329 m -17 X s 102 1347 m -8 X s 102 1365 m -8 X s 102 1384 m -8 X s 102 1402 m -8 X s 111 1421 m -17 X s 102 1439 m -8 X s 102 1457 m -8 X s 102 1476 m -8 X s 102 1494 m -8 X s 111 1513 m -17 X
 s 102 1531 m -8 X s 102 1549 m -8 X s 102 1568 m -8 X s 102 1586 m -8 X s 111 1605 m -17 X s 102 1623 m -8 X s 102 1641 m -8 X s 102 1660 m -8 X s 102 1678 m -8 X s 111 1697 m -17 X s 102 1715 m -8 X s 102 1733 m -8 X s 102 1752 m -8 X s 102 1770 m
 -8 X s 111 1789 m -17 X s 102 1807 m -8 X s 102 1825 m -8 X s 102 1844 m -8 X s 102 1862 m -8 X s 111 1881 m -17 X s 111 1881 m -17 X s 102 1899 m -8 X s 102 1917 m -8 X s
 gsave  710 985 23 1046 C 74.0711 1136.71 t 0 r /Helvetica findfont 22.829 sf 0 0 m (0) show NC gr 
 gsave  710 985 23 1046 C 62.6756 1230.72 t 0 r /Helvetica findfont 22.829 sf 0 0 m (10) show NC gr 
 gsave  710 985 23 1046 C 62.6756 1321.89 t 0 r /Helvetica findfont 22.829 sf 0 0 m (20) show NC gr 
 gsave  710 985 23 1046 C 62.6756 1413.05 t 0 r /Helvetica findfont 22.829 sf 0 0 m (30) show NC gr 
 gsave  710 985 23 1046 C 62.6756 1504.21 t 0 r /Helvetica findfont 22.829 sf 0 0 m (40) show NC gr 
 gsave  710 985 23 1046 C 62.6756 1598.23 t 0 r /Helvetica findfont 22.829 sf 0 0 m (50) show NC gr 
 gsave  710 985 23 1046 C 62.6756 1689.39 t 0 r /Helvetica findfont 22.829 sf 0 0 m (60) show NC gr 
 gsave  710 985 23 1046 C 62.6756 1780.56 t 0 r /Helvetica findfont 22.829 sf 0 0 m (70) show NC gr 
 gsave  710 985 23 1046 C 62.6756 1874.57 t 0 r /Helvetica findfont 22.829 sf 0 0 m (80) show NC gr  1 1 1 c 142 158 577 1809 bf black 577 1809 m 142 X s 719 1809 m 158 Y s 719 1967 m -142 X s 577 1967 m -158 Y s 1 1 1 c black
 gsave  710 985 23 1046 C 632.454 1937.25 t 0 r /Helvetica findfont 25.6826 sf 0 0 m (h3) show NC gr  577 1927 m 142 X s
 gsave  710 985 23 1046 C 581.174 1900.21 t 0 r /Helvetica findfont 17.1217 sf 0 0 m (Entries ) show NC gr 
 gsave  710 985 23 1046 C 675.187 1900.21 t 0 r /Helvetica findfont 17.1217 sf 0 0 m ( 357) show NC gr 
 gsave  710 985 23 1046 C 581.174 1860.33 t 0 r /Helvetica findfont 17.1217 sf 0 0 m (Mean  ) show NC gr 
 gsave  710 985 23 1046 C 655.245 1860.33 t 0 r /Helvetica findfont 17.1217 sf 0 0 m (  1.487) show NC gr 
 gsave  710 985 23 1046 C 581.174 1820.44 t 0 r /Helvetica findfont 17.1217 sf 0 0 m (RMS   ) show NC gr 
 gsave  710 985 23 1046 C 652.396 1820.44 t 0 r /Helvetica findfont 17.1217 sf 0 0 m ( 0.5507) show NC gr  1 0 0 c 1 1 1 c black 1 0 0 c 94 1257 m 57 X 203 Y 56 X 143 Y 57 X 90 Y 57 X 63 Y 57 X -2 Y 57 X -143 Y 57 X -318 Y 56 X -134 Y 57 X -14 Y 57 X
 s black 1 1 1 c 498 54 129 1972 bf black
 gsave  710 985 23 1046 C 139.596 1991.37 t 0 r /Helvetica findfont 25.6826 sf 0 0 m (Minimal angle between L1 and final quark) show NC gr  1 1 1 c 710 985 779 1046 bf black 1 1 1 c 568 787 850 1145 bf black 568 787 850 1145 bl 1 1 1 c 568 787 850
 1145 bf black 568 787 850 1145 bl 0 0 1 c 1 1 1 c black 0 0 1 c 878 1230 m 30 Y s 878 1260 m 30 Y s 850 1260 m 28 X s 878 1260 m 28 X s black 878 1260 m20 0 0 1 c 935 1383 m 47 Y s 935 1430 m 46 Y s 906 1430 m 29 X s 935 1430 m 28 X s black 935 1430
 m20 0 0 1 c 992 1656 m 66 Y s 992 1722 m 67 Y s 963 1722 m 29 X s 992 1722 m 28 X s black 992 1722 m20 0 0 1 c 1049 1714 m 70 Y s 1049 1784 m 70 Y s 1020 1784 m 29 X s 1049 1784 m 28 X s black 1049 1784 m20 0 0 1 c 1105 1750 m 72 Y s 1105 1822 m 73
 Y s 1077 1822 m 28 X s 1105 1822 m 29 X s black 1105 1822 m20 0 0 1 c 1162 1411 m 49 Y s 1162 1460 m 50 Y s 1134 1460 m 28 X s 1162 1460 m 29 X s black 1162 1460 m20 0 0 1 c 1219 1224 m 28 Y s 1219 1252 m 29 Y s 1191 1252 m 28 X s 1219 1252 m 29 X s
 black 1219 1252 m20 0 0 1 c 1276 1154 m 14 Y s 1276 1168 m 13 Y s 1248 1168 m 28 X s 1276 1168 m 28 X s black 1276 1168 m20 0 0 1 c 1333 1145 m 7 Y s 1333 1152 m 8 Y s 1304 1152 m 29 X s 1333 1152 m 28 X s black 1333 1152 m20 1 1 1 c 142 158 1333
 1809 bf black 1333 1809 m 142 X s 1475 1809 m 158 Y s 1475 1967 m -142 X s 1333 1967 m -158 Y s 1 1 1 c black
 gsave  710 985 779 1046 C 1387.41 1937.25 t 0 r /Helvetica findfont 25.6826 sf 0 0 m (h4) show NC gr  1333 1927 m 142 X s
 gsave  710 985 779 1046 C 1338.98 1900.21 t 0 r /Helvetica findfont 17.1217 sf 0 0 m (Entries ) show NC gr 
 gsave  710 985 779 1046 C 1432.99 1900.21 t 0 r /Helvetica findfont 17.1217 sf 0 0 m ( 357) show NC gr 
 gsave  710 985 779 1046 C 1338.98 1860.33 t 0 r /Helvetica findfont 17.1217 sf 0 0 m (Mean  ) show NC gr 
 gsave  710 985 779 1046 C 1413.05 1860.33 t 0 r /Helvetica findfont 17.1217 sf 0 0 m (  1.126) show NC gr 
 gsave  710 985 779 1046 C 1338.98 1820.44 t 0 r /Helvetica findfont 17.1217 sf 0 0 m (RMS   ) show NC gr 
 gsave  710 985 779 1046 C 1410.2 1820.44 t 0 r /Helvetica findfont 17.1217 sf 0 0 m ( 0.4659) show NC gr  850 1145 m 568 X s 850 1168 m -23 Y s 868 1156 m -11 Y s 886 1156 m -11 Y s 904 1156 m -11 Y s 922 1156 m -11 Y s 940 1168 m -23 Y s 958 1156 m
 -11 Y s 976 1156 m -11 Y s 994 1156 m -11 Y s 1012 1156 m -11 Y s 1031 1168 m -23 Y s 1049 1156 m -11 Y s 1067 1156 m -11 Y s 1085 1156 m -11 Y s 1103 1156 m -11 Y s 1121 1168 m -23 Y s 1139 1156 m -11 Y s 1157 1156 m -11 Y s 1175 1156 m -11 Y s
 1193 1156 m -11 Y s 1212 1168 m -23 Y s 1230 1156 m -11 Y s 1248 1156 m -11 Y s 1266 1156 m -11 Y s 1284 1156 m -11 Y s 1302 1168 m -23 Y s 1320 1156 m -11 Y s 1338 1156 m -11 Y s 1356 1156 m -11 Y s 1374 1156 m -11 Y s 1392 1168 m -23 Y s 1392 1168
 m -23 Y s 1411 1156 m -11 Y s
 gsave  710 985 779 1046 C 840.423 1113.92 t 0 r /Helvetica findfont 22.829 sf 0 0 m (0) show NC gr 
 gsave  710 985 779 1046 C 920.192 1113.92 t 0 r /Helvetica findfont 22.829 sf 0 0 m (0.5) show NC gr 
 gsave  710 985 779 1046 C 1022.75 1113.92 t 0 r /Helvetica findfont 22.829 sf 0 0 m (1) show NC gr 
 gsave  710 985 779 1046 C 1102.52 1113.92 t 0 r /Helvetica findfont 22.829 sf 0 0 m (1.5) show NC gr 
 gsave  710 985 779 1046 C 1202.23 1113.92 t 0 r /Helvetica findfont 22.829 sf 0 0 m (2) show NC gr 
 gsave  710 985 779 1046 C 1284.85 1113.92 t 0 r /Helvetica findfont 22.829 sf 0 0 m (2.5) show NC gr 
 gsave  710 985 779 1046 C 1381.71 1113.92 t 0 r /Helvetica findfont 22.829 sf 0 0 m (3) show NC gr  850 1145 m 787 Y s 867 1145 m -17 X s 858 1183 m -8 X s 858 1222 m -8 X s 858 1260 m -8 X s 867 1299 m -17 X s 858 1337 m -8 X s 858 1376 m -8 X s
 858 1414 m -8 X s 867 1453 m -17 X s 858 1491 m -8 X s 858 1530 m -8 X s 858 1568 m -8 X s 867 1607 m -17 X s 858 1645 m -8 X s 858 1684 m -8 X s 858 1722 m -8 X s 867 1761 m -17 X s 858 1799 m -8 X s 858 1838 m -8 X s 858 1876 m -8 X s 867 1915 m
 -17 X s 867 1915 m -17 X s
 gsave  710 985 779 1046 C 829.027 1136.71 t 0 r /Helvetica findfont 22.829 sf 0 0 m (0) show NC gr 
 gsave  710 985 779 1046 C 817.631 1290.55 t 0 r /Helvetica findfont 22.829 sf 0 0 m (20) show NC gr 
 gsave  710 985 779 1046 C 817.631 1444.39 t 0 r /Helvetica findfont 22.829 sf 0 0 m (40) show NC gr 
 gsave  710 985 779 1046 C 817.631 1598.23 t 0 r /Helvetica findfont 22.829 sf 0 0 m (60) show NC gr 
 gsave  710 985 779 1046 C 817.631 1754.92 t 0 r /Helvetica findfont 22.829 sf 0 0 m (80) show NC gr 
 gsave  710 985 779 1046 C 806.236 1908.76 t 0 r /Helvetica findfont 22.829 sf 0 0 m (100) show NC gr  1 1 1 c 142 158 1333 1809 bf black 1333 1809 m 142 X s 1475 1809 m 158 Y s 1475 1967 m -142 X s 1333 1967 m -158 Y s 1 1 1 c black
 gsave  710 985 779 1046 C 1387.41 1937.25 t 0 r /Helvetica findfont 25.6826 sf 0 0 m (h4) show NC gr  1333 1927 m 142 X s
 gsave  710 985 779 1046 C 1338.98 1900.21 t 0 r /Helvetica findfont 17.1217 sf 0 0 m (Entries ) show NC gr 
 gsave  710 985 779 1046 C 1432.99 1900.21 t 0 r /Helvetica findfont 17.1217 sf 0 0 m ( 357) show NC gr 
 gsave  710 985 779 1046 C 1338.98 1860.33 t 0 r /Helvetica findfont 17.1217 sf 0 0 m (Mean  ) show NC gr 
 gsave  710 985 779 1046 C 1413.05 1860.33 t 0 r /Helvetica findfont 17.1217 sf 0 0 m (  1.126) show NC gr 
 gsave  710 985 779 1046 C 1338.98 1820.44 t 0 r /Helvetica findfont 17.1217 sf 0 0 m (RMS   ) show NC gr 
 gsave  710 985 779 1046 C 1410.2 1820.44 t 0 r /Helvetica findfont 17.1217 sf 0 0 m ( 0.4659) show NC gr  1 0 0 c 1 1 1 c black 1 0 0 c 850 1218 m 56 X 170 Y 57 X 230 Y 57 X 277 Y 57 X 18 Y 57 X -424 Y 57 X -266 Y 57 X -63 Y 56 X -14 Y 57 X -1 Y 57
 X s black 1 1 1 c 498 54 885 1972 bf black
 gsave  710 985 779 1046 C 897.4 1991.37 t 0 r /Helvetica findfont 25.6826 sf 0 0 m (Minimal angle between L2 and final quark) show NC gr  1 1 1 c 711 985 1534 1046 bf black 1 1 1 c 570 789 1604 1145 bf black 570 789 1604 1145 bl 1 1 1 c 570 789 1604
 1145 bf black 570 789 1604 1145 bl 0 0 1 c 1 1 1 c black 0 0 1 c 1632 1253 m 32 Y s 1632 1285 m 31 Y s 1604 1285 m 28 X s 1632 1285 m 29 X s black 1632 1285 m20 0 0 1 c 1689 1516 m 54 Y s 1689 1570 m 55 Y s 1661 1570 m 28 X s 1689 1570 m 29 X s
 black 1689 1570 m20 0 0 1 c 1746 1693 m 65 Y s 1746 1758 m 66 Y s 1718 1758 m 28 X s 1746 1758 m 29 X s black 1746 1758 m20 0 0 1 c 1803 1759 m 69 Y s 1803 1828 m 69 Y s 1775 1828 m 28 X s 1803 1828 m 29 X s black 1803 1828 m20 0 0 1 c 1860 1477 m
 51 Y s 1860 1528 m 52 Y s 1832 1528 m 28 X s 1860 1528 m 29 X s black 1860 1528 m20 0 0 1 c 1917 1285 m 34 Y s 1917 1319 m 35 Y s 1889 1319 m 28 X s 1917 1319 m 29 X s black 1917 1319 m20 0 0 1 c 1974 1176 m 18 Y s 1974 1194 m 18 Y s 1946 1194 m 28
 X s 1974 1194 m 29 X s black 1974 1194 m20 0 0 1 c 2031 1149 m 10 Y s 2031 1159 m 10 Y s 2003 1159 m 28 X s 2031 1159 m 29 X s black 2031 1159 m20 0 0 1 c 2088 1145 m 7 Y s 2088 1152 m 7 Y s 2060 1152 m 28 X s 2088 1152 m 29 X s black 2088 1152 m20
 1 1 1 c 142 158 2089 1809 bf black 2089 1809 m 142 X s 2231 1809 m 158 Y s 2231 1967 m -142 X s 2089 1967 m -158 Y s 1 1 1 c black
 gsave  711 985 1534 1046 C 2136.67 1937.25 t 0 r /Helvetica findfont 25.6826 sf 0 0 m (h15) show NC gr  2089 1927 m 142 X s
 gsave  711 985 1534 1046 C 2093.93 1900.21 t 0 r /Helvetica findfont 17.1217 sf 0 0 m (Entries ) show NC gr 
 gsave  711 985 1534 1046 C 2187.95 1900.21 t 0 r /Helvetica findfont 17.1217 sf 0 0 m ( 357) show NC gr 
 gsave  711 985 1534 1046 C 2093.93 1860.33 t 0 r /Helvetica findfont 17.1217 sf 0 0 m (Mean  ) show NC gr 
 gsave  711 985 1534 1046 C 2165.16 1860.33 t 0 r /Helvetica findfont 17.1217 sf 0 0 m ( 0.9843) show NC gr 
 gsave  711 985 1534 1046 C 2093.93 1820.44 t 0 r /Helvetica findfont 17.1217 sf 0 0 m (RMS   ) show NC gr 
 gsave  711 985 1534 1046 C 2165.16 1820.44 t 0 r /Helvetica findfont 17.1217 sf 0 0 m ( 0.4489) show NC gr  1604 1145 m 570 X s 1604 1169 m -24 Y s 1622 1157 m -12 Y s 1640 1157 m -12 Y s 1658 1157 m -12 Y s 1676 1157 m -12 Y s 1695 1169 m -24 Y s
 1713 1157 m -12 Y s 1731 1157 m -12 Y s 1749 1157 m -12 Y s 1767 1157 m -12 Y s 1785 1169 m -24 Y s 1803 1157 m -12 Y s 1822 1157 m -12 Y s 1840 1157 m -12 Y s 1858 1157 m -12 Y s 1876 1169 m -24 Y s 1894 1157 m -12 Y s 1912 1157 m -12 Y s 1930 1157
 m -12 Y s 1949 1157 m -12 Y s 1967 1169 m -24 Y s 1985 1157 m -12 Y s 2003 1157 m -12 Y s 2021 1157 m -12 Y s 2039 1157 m -12 Y s 2057 1169 m -24 Y s 2075 1157 m -12 Y s 2094 1157 m -12 Y s 2112 1157 m -12 Y s 2130 1157 m -12 Y s 2148 1169 m -24 Y s
 2148 1169 m -24 Y s 2166 1157 m -12 Y s
 gsave  711 985 1534 1046 C 1595.38 1113.92 t 0 r /Helvetica findfont 22.829 sf 0 0 m (0) show NC gr 
 gsave  711 985 1534 1046 C 1675.15 1113.92 t 0 r /Helvetica findfont 22.829 sf 0 0 m (0.5) show NC gr 
 gsave  711 985 1534 1046 C 1777.71 1113.92 t 0 r /Helvetica findfont 22.829 sf 0 0 m (1) show NC gr 
 gsave  711 985 1534 1046 C 1857.48 1113.92 t 0 r /Helvetica findfont 22.829 sf 0 0 m (1.5) show NC gr 
 gsave  711 985 1534 1046 C 1957.19 1113.92 t 0 r /Helvetica findfont 22.829 sf 0 0 m (2) show NC gr 
 gsave  711 985 1534 1046 C 2039.81 1113.92 t 0 r /Helvetica findfont 22.829 sf 0 0 m (2.5) show NC gr 
 gsave  711 985 1534 1046 C 2136.67 1113.92 t 0 r /Helvetica findfont 22.829 sf 0 0 m (3) show NC gr  1604 1145 m 789 Y s 1621 1145 m -17 X s 1612 1180 m -8 X s 1612 1215 m -8 X s 1612 1250 m -8 X s 1621 1285 m -17 X s 1612 1319 m -8 X s 1612 1354 m
 -8 X s 1612 1389 m -8 X s 1621 1424 m -17 X s 1612 1459 m -8 X s 1612 1494 m -8 X s 1612 1528 m -8 X s 1621 1563 m -17 X s 1612 1598 m -8 X s 1612 1633 m -8 X s 1612 1668 m -8 X s 1621 1702 m -17 X s 1612 1737 m -8 X s 1612 1772 m -8 X s 1612 1807 m
 -8 X s 1621 1842 m -17 X s 1621 1842 m -17 X s 1612 1877 m -8 X s 1612 1911 m -8 X s
 gsave  711 985 1534 1046 C 1583.98 1136.71 t 0 r /Helvetica findfont 22.829 sf 0 0 m (0) show NC gr 
 gsave  711 985 1534 1046 C 1572.59 1276.3 t 0 r /Helvetica findfont 22.829 sf 0 0 m (20) show NC gr 
 gsave  711 985 1534 1046 C 1572.59 1415.9 t 0 r /Helvetica findfont 22.829 sf 0 0 m (40) show NC gr 
 gsave  711 985 1534 1046 C 1572.59 1555.49 t 0 r /Helvetica findfont 22.829 sf 0 0 m (60) show NC gr 
 gsave  711 985 1534 1046 C 1572.59 1695.09 t 0 r /Helvetica findfont 22.829 sf 0 0 m (80) show NC gr 
 gsave  711 985 1534 1046 C 1561.19 1834.69 t 0 r /Helvetica findfont 22.829 sf 0 0 m (100) show NC gr  1 1 1 c 142 158 2089 1809 bf black 2089 1809 m 142 X s 2231 1809 m 158 Y s 2231 1967 m -142 X s 2089 1967 m -158 Y s 1 1 1 c black
 gsave  711 985 1534 1046 C 2136.67 1937.25 t 0 r /Helvetica findfont 25.6826 sf 0 0 m (h15) show NC gr  2089 1927 m 142 X s
 gsave  711 985 1534 1046 C 2093.93 1900.21 t 0 r /Helvetica findfont 17.1217 sf 0 0 m (Entries ) show NC gr 
 gsave  711 985 1534 1046 C 2187.95 1900.21 t 0 r /Helvetica findfont 17.1217 sf 0 0 m ( 357) show NC gr 
 gsave  711 985 1534 1046 C 2093.93 1860.33 t 0 r /Helvetica findfont 17.1217 sf 0 0 m (Mean  ) show NC gr 
 gsave  711 985 1534 1046 C 2165.16 1860.33 t 0 r /Helvetica findfont 17.1217 sf 0 0 m ( 0.9843) show NC gr 
 gsave  711 985 1534 1046 C 2093.93 1820.44 t 0 r /Helvetica findfont 17.1217 sf 0 0 m (RMS   ) show NC gr 
 gsave  711 985 1534 1046 C 2165.16 1820.44 t 0 r /Helvetica findfont 17.1217 sf 0 0 m ( 0.4489) show NC gr  1 0 0 c 1 1 1 c black 1 0 0 c 1604 1296 m 57 X 283 Y 57 X 215 Y 57 X 51 Y 57 X -304 Y 57 X -280 Y 57 X -82 Y 57 X -26 Y 57 X -7 Y 57 X -1 Y
 57 X s black 1 1 1 c 497 54 1641 1972 bf black
 gsave  711 985 1534 1046 C 1663.75 1991.37 t 0 r /Helvetica findfont 22.829 sf 0 0 m (Minimal angle between a lepton and a quark) show NC gr  1 1 1 c 710 984 23 21 bf black 1 1 1 c 568 788 94 119 bf black 568 788 94 119 bl 1 1 1 c 568 788 94 119 bf
 black 568 788 94 119 bl 0 0 1 c 1 1 1 c black 0 0 1 c 122 185 m 31 Y s 122 216 m 31 Y s 94 216 m 28 X s 122 216 m 29 X s black 122 216 m20 0 0 1 c 179 304 m 48 Y s 179 352 m 47 Y s 151 352 m 28 X s 179 352 m 28 X s black 179 352 m20 0 0 1 c 236 599
 m 73 Y s 236 672 m 73 Y s 207 672 m 29 X s 236 672 m 28 X s black 236 672 m20 0 0 1 c 293 653 m 77 Y s 293 730 m 77 Y s 264 730 m 29 X s 293 730 m 28 X s black 293 730 m20 0 0 1 c 350 708 m 81 Y s 350 789 m 80 Y s 321 789 m 29 X s 350 789 m 28 X s
 black 350 789 m20 0 0 1 c 406 635 m 76 Y s 406 711 m 76 Y s 378 711 m 28 X s 406 711 m 29 X s black 406 711 m20 0 0 1 c 463 410 m 58 Y s 463 468 m 59 Y s 435 468 m 28 X s 463 468 m 29 X s black 463 468 m20 0 0 1 c 520 270 m 43 Y s 520 313 m 43 Y s
 492 313 m 28 X s 520 313 m 28 X s black 520 313 m20 0 0 1 c 577 202 m 33 Y s 577 235 m 34 Y s 548 235 m 29 X s 577 235 m 28 X s black 577 235 m20 0 0 1 c 634 131 m 17 Y s 634 148 m 17 Y s 605 148 m 29 X s 634 148 m 28 X s black 634 148 m20 1 1 1 c
 142 157 577 784 bf black 577 784 m 142 X s 719 784 m 157 Y s 719 941 m -142 X s 577 941 m -157 Y s 1 1 1 c black
 gsave  710 984 23 21 C 623.907 911.645 t 0 r /Helvetica findfont 25.6826 sf 0 0 m (h18) show NC gr  577 902 m 142 X s
 gsave  710 984 23 21 C 581.174 874.609 t 0 r /Helvetica findfont 17.1217 sf 0 0 m (Entries ) show NC gr 
 gsave  710 984 23 21 C 675.187 874.609 t 0 r /Helvetica findfont 17.1217 sf 0 0 m ( 357) show NC gr 
 gsave  710 984 23 21 C 581.174 834.725 t 0 r /Helvetica findfont 17.1217 sf 0 0 m (Mean  ) show NC gr 
 gsave  710 984 23 21 C 655.245 834.725 t 0 r /Helvetica findfont 17.1217 sf 0 0 m (  2.202) show NC gr 
 gsave  710 984 23 21 C 581.174 794.84 t 0 r /Helvetica findfont 17.1217 sf 0 0 m (RMS   ) show NC gr 
 gsave  710 984 23 21 C 652.396 794.84 t 0 r /Helvetica findfont 17.1217 sf 0 0 m ( 0.9364) show NC gr  94 119 m 568 X s 94 143 m -24 Y s 105 131 m -12 Y s 116 131 m -12 Y s 128 131 m -12 Y s 139 131 m -12 Y s 151 143 m -24 Y s 162 131 m -12 Y s 173
 131 m -12 Y s 185 131 m -12 Y s 196 131 m -12 Y s 207 143 m -24 Y s 219 131 m -12 Y s 230 131 m -12 Y s 242 131 m -12 Y s 253 131 m -12 Y s 264 143 m -24 Y s 276 131 m -12 Y s 287 131 m -12 Y s 298 131 m -12 Y s 310 131 m -12 Y s 321 143 m -24 Y s
 332 131 m -12 Y s 344 131 m -12 Y s 355 131 m -12 Y s 367 131 m -12 Y s 378 143 m -24 Y s 389 131 m -12 Y s 401 131 m -12 Y s 412 131 m -12 Y s 423 131 m -12 Y s 435 143 m -24 Y s 446 131 m -12 Y s 458 131 m -12 Y s 469 131 m -12 Y s 480 131 m -12 Y
 s 492 143 m -24 Y s 503 131 m -12 Y s 514 131 m -12 Y s 526 131 m -12 Y s 537 131 m -12 Y s 548 143 m -24 Y s 560 131 m -12 Y s 571 131 m -12 Y s 583 131 m -12 Y s 594 131 m -12 Y s 605 143 m -24 Y s 617 131 m -12 Y s 628 131 m -12 Y s 639 131 m -12
 Y s 651 131 m -12 Y s 662 143 m -24 Y s
 gsave  710 984 23 21 C 82.6178 88.3156 t 0 r /Helvetica findfont 22.829 sf 0 0 m (0) show NC gr 
 gsave  710 984 23 21 C 131.049 88.3156 t 0 r /Helvetica findfont 22.829 sf 0 0 m (0.5) show NC gr 
 gsave  710 984 23 21 C 199.422 88.3156 t 0 r /Helvetica findfont 22.829 sf 0 0 m (1) show NC gr 
 gsave  710 984 23 21 C 245.005 88.3156 t 0 r /Helvetica findfont 22.829 sf 0 0 m (1.5) show NC gr 
 gsave  710 984 23 21 C 310.529 88.3156 t 0 r /Helvetica findfont 22.829 sf 0 0 m (2) show NC gr 
 gsave  710 984 23 21 C 358.96 88.3156 t 0 r /Helvetica findfont 22.829 sf 0 0 m (2.5) show NC gr 
 gsave  710 984 23 21 C 424.485 88.3156 t 0 r /Helvetica findfont 22.829 sf 0 0 m (3) show NC gr 
 gsave  710 984 23 21 C 472.916 88.3156 t 0 r /Helvetica findfont 22.829 sf 0 0 m (3.5) show NC gr 
 gsave  710 984 23 21 C 538.44 88.3156 t 0 r /Helvetica findfont 22.829 sf 0 0 m (4) show NC gr 
 gsave  710 984 23 21 C 586.871 88.3156 t 0 r /Helvetica findfont 22.829 sf 0 0 m (4.5) show NC gr 
 gsave  710 984 23 21 C 652.396 88.3156 t 0 r /Helvetica findfont 22.829 sf 0 0 m (5) show NC gr  94 119 m 788 Y s 111 119 m -17 X s 102 138 m -8 X s 102 158 m -8 X s 102 177 m -8 X s 102 197 m -8 X s 111 216 m -17 X s 102 235 m -8 X s 102 255 m -8 X
 s 102 274 m -8 X s 102 294 m -8 X s 111 313 m -17 X s 102 332 m -8 X s 102 352 m -8 X s 102 371 m -8 X s 102 391 m -8 X s 111 410 m -17 X s 102 429 m -8 X s 102 449 m -8 X s 102 468 m -8 X s 102 488 m -8 X s 111 507 m -17 X s 102 527 m -8 X s 102
 546 m -8 X s 102 565 m -8 X s 102 585 m -8 X s 111 604 m -17 X s 102 624 m -8 X s 102 643 m -8 X s 102 662 m -8 X s 102 682 m -8 X s 111 701 m -17 X s 102 721 m -8 X s 102 740 m -8 X s 102 759 m -8 X s 102 779 m -8 X s 111 798 m -17 X s 102 818 m -8
 X s 102 837 m -8 X s 102 856 m -8 X s 102 876 m -8 X s 111 895 m -17 X s 111 895 m -17 X s
 gsave  710 984 23 21 C 74.0711 111.107 t 0 r /Helvetica findfont 22.829 sf 0 0 m (0) show NC gr 
 gsave  710 984 23 21 C 62.6756 207.969 t 0 r /Helvetica findfont 22.829 sf 0 0 m (10) show NC gr 
 gsave  710 984 23 21 C 62.6756 304.831 t 0 r /Helvetica findfont 22.829 sf 0 0 m (20) show NC gr 
 gsave  710 984 23 21 C 62.6756 401.694 t 0 r /Helvetica findfont 22.829 sf 0 0 m (30) show NC gr 
 gsave  710 984 23 21 C 62.6756 501.405 t 0 r /Helvetica findfont 22.829 sf 0 0 m (40) show NC gr 
 gsave  710 984 23 21 C 62.6756 598.267 t 0 r /Helvetica findfont 22.829 sf 0 0 m (50) show NC gr 
 gsave  710 984 23 21 C 62.6756 695.129 t 0 r /Helvetica findfont 22.829 sf 0 0 m (60) show NC gr 
 gsave  710 984 23 21 C 62.6756 791.991 t 0 r /Helvetica findfont 22.829 sf 0 0 m (70) show NC gr 
 gsave  710 984 23 21 C 62.6756 888.854 t 0 r /Helvetica findfont 22.829 sf 0 0 m (80) show NC gr  1 1 1 c 142 157 577 784 bf black 577 784 m 142 X s 719 784 m 157 Y s 719 941 m -142 X s 577 941 m -157 Y s 1 1 1 c black
 gsave  710 984 23 21 C 623.907 911.645 t 0 r /Helvetica findfont 25.6826 sf 0 0 m (h18) show NC gr  577 902 m 142 X s
 gsave  710 984 23 21 C 581.174 874.609 t 0 r /Helvetica findfont 17.1217 sf 0 0 m (Entries ) show NC gr 
 gsave  710 984 23 21 C 675.187 874.609 t 0 r /Helvetica findfont 17.1217 sf 0 0 m ( 357) show NC gr 
 gsave  710 984 23 21 C 581.174 834.725 t 0 r /Helvetica findfont 17.1217 sf 0 0 m (Mean  ) show NC gr 
 gsave  710 984 23 21 C 655.245 834.725 t 0 r /Helvetica findfont 17.1217 sf 0 0 m (  2.202) show NC gr 
 gsave  710 984 23 21 C 581.174 794.84 t 0 r /Helvetica findfont 17.1217 sf 0 0 m (RMS   ) show NC gr 
 gsave  710 984 23 21 C 652.396 794.84 t 0 r /Helvetica findfont 17.1217 sf 0 0 m ( 0.9364) show NC gr  1 0 0 c 1 1 1 c black 1 0 0 c 94 633 m 113 X 274 Y s 435 907 m -183 Y s 435 724 m 113 X -449 Y 114 X s black 1 1 1 c 498 54 129 946 bf black
 gsave  710 984 23 21 C 150.991 965.774 t 0 r /Helvetica findfont 22.829 sf 0 0 m (Eta\255phi distance between L1 and final quark ) show NC gr  1 1 1 c 710 984 779 21 bf black 1 1 1 c 568 788 850 119 bf black 568 788 850 119 bl 1 1 1 c 568 788 850
 119 bf black 568 788 850 119 bl 0 0 1 c 1 1 1 c black 0 0 1 c 878 247 m 36 Y s 878 283 m 35 Y s 850 283 m 28 X s 878 283 m 28 X s black 878 283 m20 0 0 1 c 935 577 m 64 Y s 935 641 m 63 Y s 906 641 m 29 X s 935 641 m 28 X s black 935 641 m20 0 0 1 c
 992 724 m 72 Y s 992 796 m 73 Y s 963 796 m 29 X s 992 796 m 28 X s black 992 796 m20 0 0 1 c 1049 724 m 72 Y s 1049 796 m 73 Y s 1020 796 m 29 X s 1049 796 m 28 X s black 1049 796 m20 0 0 1 c 1105 432 m 53 Y s 1105 485 m 53 Y s 1077 485 m 28 X s
 1105 485 m 29 X s black 1105 485 m20 0 0 1 c 1162 219 m 32 Y s 1162 251 m 32 Y s 1134 251 m 28 X s 1162 251 m 29 X s black 1162 251 m20 0 0 1 c 1219 192 m 28 Y s 1219 220 m 28 Y s 1191 220 m 28 X s 1219 220 m 29 X s black 1219 220 m20 0 0 1 c 1276
 185 m 27 Y s 1276 212 m 27 Y s 1248 212 m 28 X s 1276 212 m 28 X s black 1276 212 m20 0 0 1 c 1333 135 m 15 Y s 1333 150 m 16 Y s 1304 150 m 29 X s 1333 150 m 28 X s black 1333 150 m20 0 0 1 c 1390 124 m 11 Y s 1390 135 m 11 Y s 1361 135 m 29 X s
 1390 135 m 28 X s black 1390 135 m20 1 1 1 c 142 157 1333 784 bf black 1333 784 m 142 X s 1475 784 m 157 Y s 1475 941 m -142 X s 1333 941 m -157 Y s 1 1 1 c black
 gsave  710 984 779 21 C 1378.86 911.645 t 0 r /Helvetica findfont 25.6826 sf 0 0 m (h19) show NC gr  1333 902 m 142 X s
 gsave  710 984 779 21 C 1338.98 874.609 t 0 r /Helvetica findfont 17.1217 sf 0 0 m (Entries ) show NC gr 
 gsave  710 984 779 21 C 1432.99 874.609 t 0 r /Helvetica findfont 17.1217 sf 0 0 m ( 357) show NC gr 
 gsave  710 984 779 21 C 1338.98 834.725 t 0 r /Helvetica findfont 17.1217 sf 0 0 m (Mean  ) show NC gr 
 gsave  710 984 779 21 C 1413.05 834.725 t 0 r /Helvetica findfont 17.1217 sf 0 0 m (  1.639) show NC gr 
 gsave  710 984 779 21 C 1338.98 794.84 t 0 r /Helvetica findfont 17.1217 sf 0 0 m (RMS   ) show NC gr 
 gsave  710 984 779 21 C 1410.2 794.84 t 0 r /Helvetica findfont 17.1217 sf 0 0 m ( 0.8854) show NC gr  850 119 m 568 X s 850 143 m -24 Y s 861 131 m -12 Y s 872 131 m -12 Y s 884 131 m -12 Y s 895 131 m -12 Y s 906 143 m -24 Y s 918 131 m -12 Y s
 929 131 m -12 Y s 941 131 m -12 Y s 952 131 m -12 Y s 963 143 m -24 Y s 975 131 m -12 Y s 986 131 m -12 Y s 997 131 m -12 Y s 1009 131 m -12 Y s 1020 143 m -24 Y s 1032 131 m -12 Y s 1043 131 m -12 Y s 1054 131 m -12 Y s 1066 131 m -12 Y s 1077 143
 m -24 Y s 1088 131 m -12 Y s 1100 131 m -12 Y s 1111 131 m -12 Y s 1122 131 m -12 Y s 1134 143 m -24 Y s 1145 131 m -12 Y s 1157 131 m -12 Y s 1168 131 m -12 Y s 1179 131 m -12 Y s 1191 143 m -24 Y s 1202 131 m -12 Y s 1213 131 m -12 Y s 1225 131 m
 -12 Y s 1236 131 m -12 Y s 1248 143 m -24 Y s 1259 131 m -12 Y s 1270 131 m -12 Y s 1282 131 m -12 Y s 1293 131 m -12 Y s 1304 143 m -24 Y s 1316 131 m -12 Y s 1327 131 m -12 Y s 1338 131 m -12 Y s 1350 131 m -12 Y s 1361 143 m -24 Y s 1373 131 m
 -12 Y s 1384 131 m -12 Y s 1395 131 m -12 Y s 1407 131 m -12 Y s 1418 143 m -24 Y s
 gsave  710 984 779 21 C 840.423 88.3156 t 0 r /Helvetica findfont 22.829 sf 0 0 m (0) show NC gr 
 gsave  710 984 779 21 C 888.854 88.3156 t 0 r /Helvetica findfont 22.829 sf 0 0 m (0.5) show NC gr 
 gsave  710 984 779 21 C 957.227 88.3156 t 0 r /Helvetica findfont 22.829 sf 0 0 m (1) show NC gr 
 gsave  710 984 779 21 C 1002.81 88.3156 t 0 r /Helvetica findfont 22.829 sf 0 0 m (1.5) show NC gr 
 gsave  710 984 779 21 C 1068.33 88.3156 t 0 r /Helvetica findfont 22.829 sf 0 0 m (2) show NC gr 
 gsave  710 984 779 21 C 1116.76 88.3156 t 0 r /Helvetica findfont 22.829 sf 0 0 m (2.5) show NC gr 
 gsave  710 984 779 21 C 1179.44 88.3156 t 0 r /Helvetica findfont 22.829 sf 0 0 m (3) show NC gr 
 gsave  710 984 779 21 C 1227.87 88.3156 t 0 r /Helvetica findfont 22.829 sf 0 0 m (3.5) show NC gr 
 gsave  710 984 779 21 C 1293.4 88.3156 t 0 r /Helvetica findfont 22.829 sf 0 0 m (4) show NC gr 
 gsave  710 984 779 21 C 1341.83 88.3156 t 0 r /Helvetica findfont 22.829 sf 0 0 m (4.5) show NC gr 
 gsave  710 984 779 21 C 1407.35 88.3156 t 0 r /Helvetica findfont 22.829 sf 0 0 m (5) show NC gr  850 119 m 788 Y s 867 119 m -17 X s 858 158 m -8 X s 858 197 m -8 X s 858 236 m -8 X s 867 275 m -17 X s 858 314 m -8 X s 858 353 m -8 X s 858 392 m -8
 X s 867 430 m -17 X s 858 469 m -8 X s 858 508 m -8 X s 858 547 m -8 X s 867 586 m -17 X s 858 625 m -8 X s 858 664 m -8 X s 858 703 m -8 X s 867 742 m -17 X s 858 781 m -8 X s 858 820 m -8 X s 858 859 m -8 X s 867 898 m -17 X s 867 898 m -17 X s
 gsave  710 984 779 21 C 829.027 111.107 t 0 r /Helvetica findfont 22.829 sf 0 0 m (0) show NC gr 
 gsave  710 984 779 21 C 817.631 267.796 t 0 r /Helvetica findfont 22.829 sf 0 0 m (20) show NC gr 
 gsave  710 984 779 21 C 817.631 424.485 t 0 r /Helvetica findfont 22.829 sf 0 0 m (40) show NC gr 
 gsave  710 984 779 21 C 817.631 578.325 t 0 r /Helvetica findfont 22.829 sf 0 0 m (60) show NC gr 
 gsave  710 984 779 21 C 817.631 735.014 t 0 r /Helvetica findfont 22.829 sf 0 0 m (80) show NC gr 
 gsave  710 984 779 21 C 806.236 891.703 t 0 r /Helvetica findfont 22.829 sf 0 0 m (100) show NC gr  1 1 1 c 142 157 1333 784 bf black 1333 784 m 142 X s 1475 784 m 157 Y s 1475 941 m -142 X s 1333 941 m -157 Y s 1 1 1 c black
 gsave  710 984 779 21 C 1378.86 911.645 t 0 r /Helvetica findfont 25.6826 sf 0 0 m (h19) show NC gr  1333 902 m 142 X s
 gsave  710 984 779 21 C 1338.98 874.609 t 0 r /Helvetica findfont 17.1217 sf 0 0 m (Entries ) show NC gr 
 gsave  710 984 779 21 C 1432.99 874.609 t 0 r /Helvetica findfont 17.1217 sf 0 0 m ( 357) show NC gr 
 gsave  710 984 779 21 C 1338.98 834.725 t 0 r /Helvetica findfont 17.1217 sf 0 0 m (Mean  ) show NC gr 
 gsave  710 984 779 21 C 1413.05 834.725 t 0 r /Helvetica findfont 17.1217 sf 0 0 m (  1.639) show NC gr 
 gsave  710 984 779 21 C 1338.98 794.84 t 0 r /Helvetica findfont 17.1217 sf 0 0 m (RMS   ) show NC gr 
 gsave  710 984 779 21 C 1410.2 794.84 t 0 r /Helvetica findfont 17.1217 sf 0 0 m ( 0.8854) show NC gr  1 0 0 c 1 1 1 c black 1 0 0 c 850 595 m 113 X 312 Y s 1077 907 m -93 Y s 1077 814 m 114 X -473 Y 113 X -169 Y 114 X s black 1 1 1 c 498 54 885 946
 bf black
 gsave  710 984 779 21 C 908.796 965.774 t 0 r /Helvetica findfont 22.829 sf 0 0 m (Eta\255phi distance between L2 and final quark ) show NC gr  1 1 1 c 711 984 1534 21 bf black 1 1 1 c 568 788 1606 119 bf black 568 788 1606 119 bl 1 1 1 c 568 788
 1606 119 bf black 568 788 1606 119 bl 0 0 1 c 1 1 1 c black 0 0 1 c 1634 294 m 38 Y s 1634 332 m 39 Y s 1606 332 m 28 X s 1634 332 m 28 X s black 1634 332 m20 0 0 1 c 1691 628 m 62 Y s 1691 690 m 63 Y s 1662 690 m 29 X s 1691 690 m 28 X s black 1691
 690 m20 0 0 1 c 1748 732 m 69 Y s 1748 801 m 68 Y s 1719 801 m 29 X s 1748 801 m 28 X s black 1748 801 m20 0 0 1 c 1804 595 m 61 Y s 1804 656 m 61 Y s 1776 656 m 28 X s 1804 656 m 29 X s black 1804 656 m20 0 0 1 c 1861 351 m 43 Y s 1861 394 m 44 Y s
 1833 394 m 28 X s 1861 394 m 29 X s black 1861 394 m20 0 0 1 c 1918 196 m 26 Y s 1918 222 m 27 Y s 1890 222 m 28 X s 1918 222 m 29 X s black 1918 222 m20 0 0 1 c 1975 149 m 18 Y s 1975 167 m 18 Y s 1947 167 m 28 X s 1975 167 m 28 X s black 1975 167
 m20 0 0 1 c 2032 133 m 14 Y s 2032 147 m 13 Y s 2003 147 m 29 X s 2032 147 m 28 X s black 2032 147 m20 1 1 1 c 142 157 2089 784 bf black 2089 784 m 142 X s 2231 784 m 157 Y s 2231 941 m -142 X s 2089 941 m -157 Y s 1 1 1 c black
 gsave  711 984 1534 21 C 2136.67 911.645 t 0 r /Helvetica findfont 25.6826 sf 0 0 m (h20) show NC gr  2089 902 m 142 X s
 gsave  711 984 1534 21 C 2093.93 874.609 t 0 r /Helvetica findfont 19.9753 sf 0 0 m (Entries ) show NC gr 
 gsave  711 984 1534 21 C 2182.25 874.609 t 0 r /Helvetica findfont 19.9753 sf 0 0 m ( 357) show NC gr 
 gsave  711 984 1534 21 C 2093.93 834.725 t 0 r /Helvetica findfont 19.9753 sf 0 0 m (Mean  ) show NC gr 
 gsave  711 984 1534 21 C 2159.46 834.725 t 0 r /Helvetica findfont 19.9753 sf 0 0 m (  1.408) show NC gr 
 gsave  711 984 1534 21 C 2093.93 794.84 t 0 r /Helvetica findfont 19.9753 sf 0 0 m (RMS   ) show NC gr 
 gsave  711 984 1534 21 C 2156.61 794.84 t 0 r /Helvetica findfont 19.9753 sf 0 0 m ( 0.7271) show NC gr  1606 119 m 568 X s 1606 143 m -24 Y s 1617 131 m -12 Y s 1628 131 m -12 Y s 1640 131 m -12 Y s 1651 131 m -12 Y s 1662 143 m -24 Y s 1674 131 m
 -12 Y s 1685 131 m -12 Y s 1696 131 m -12 Y s 1708 131 m -12 Y s 1719 143 m -24 Y s 1731 131 m -12 Y s 1742 131 m -12 Y s 1753 131 m -12 Y s 1765 131 m -12 Y s 1776 143 m -24 Y s 1787 131 m -12 Y s 1799 131 m -12 Y s 1810 131 m -12 Y s 1822 131 m
 -12 Y s 1833 143 m -24 Y s 1844 131 m -12 Y s 1856 131 m -12 Y s 1867 131 m -12 Y s 1878 131 m -12 Y s 1890 143 m -24 Y s 1901 131 m -12 Y s 1913 131 m -12 Y s 1924 131 m -12 Y s 1935 131 m -12 Y s 1947 143 m -24 Y s 1958 131 m -12 Y s 1969 131 m
 -12 Y s 1981 131 m -12 Y s 1992 131 m -12 Y s 2003 143 m -24 Y s 2015 131 m -12 Y s 2026 131 m -12 Y s 2038 131 m -12 Y s 2049 131 m -12 Y s 2060 143 m -24 Y s 2072 131 m -12 Y s 2083 131 m -12 Y s 2094 131 m -12 Y s 2106 131 m -12 Y s 2117 143 m
 -24 Y s 2129 131 m -12 Y s 2140 131 m -12 Y s 2151 131 m -12 Y s 2163 131 m -12 Y s 2174 143 m -24 Y s
 gsave  711 984 1534 21 C 1595.38 88.3156 t 0 r /Helvetica findfont 22.829 sf 0 0 m (0) show NC gr 
 gsave  711 984 1534 21 C 1643.81 88.3156 t 0 r /Helvetica findfont 22.829 sf 0 0 m (0.5) show NC gr 
 gsave  711 984 1534 21 C 1712.18 88.3156 t 0 r /Helvetica findfont 22.829 sf 0 0 m (1) show NC gr 
 gsave  711 984 1534 21 C 1757.77 88.3156 t 0 r /Helvetica findfont 22.829 sf 0 0 m (1.5) show NC gr 
 gsave  711 984 1534 21 C 1823.29 88.3156 t 0 r /Helvetica findfont 22.829 sf 0 0 m (2) show NC gr 
 gsave  711 984 1534 21 C 1871.72 88.3156 t 0 r /Helvetica findfont 22.829 sf 0 0 m (2.5) show NC gr 
 gsave  711 984 1534 21 C 1937.25 88.3156 t 0 r /Helvetica findfont 22.829 sf 0 0 m (3) show NC gr 
 gsave  711 984 1534 21 C 1985.68 88.3156 t 0 r /Helvetica findfont 22.829 sf 0 0 m (3.5) show NC gr 
 gsave  711 984 1534 21 C 2051.2 88.3156 t 0 r /Helvetica findfont 22.829 sf 0 0 m (4) show NC gr 
 gsave  711 984 1534 21 C 2099.63 88.3156 t 0 r /Helvetica findfont 22.829 sf 0 0 m (4.5) show NC gr 
 gsave  711 984 1534 21 C 2165.16 88.3156 t 0 r /Helvetica findfont 22.829 sf 0 0 m (5) show NC gr  1606 119 m 788 Y s 1623 119 m -17 X s 1614 153 m -8 X s 1614 188 m -8 X s 1614 222 m -8 X s 1623 257 m -17 X s 1614 291 m -8 X s 1614 326 m -8 X s
 1614 360 m -8 X s 1623 394 m -17 X s 1614 429 m -8 X s 1614 463 m -8 X s 1614 498 m -8 X s 1623 532 m -17 X s 1614 567 m -8 X s 1614 601 m -8 X s 1614 635 m -8 X s 1623 670 m -17 X s 1614 704 m -8 X s 1614 739 m -8 X s 1614 773 m -8 X s 1623 808 m
 -17 X s 1623 808 m -17 X s 1614 842 m -8 X s 1614 876 m -8 X s
 gsave  711 984 1534 21 C 1586.83 111.107 t 0 r /Helvetica findfont 22.829 sf 0 0 m (0) show NC gr 
 gsave  711 984 1534 21 C 1575.44 250.702 t 0 r /Helvetica findfont 22.829 sf 0 0 m (20) show NC gr 
 gsave  711 984 1534 21 C 1575.44 387.449 t 0 r /Helvetica findfont 22.829 sf 0 0 m (40) show NC gr 
 gsave  711 984 1534 21 C 1575.44 524.196 t 0 r /Helvetica findfont 22.829 sf 0 0 m (60) show NC gr 
 gsave  711 984 1534 21 C 1575.44 663.791 t 0 r /Helvetica findfont 22.829 sf 0 0 m (80) show NC gr 
 gsave  711 984 1534 21 C 1564.04 800.538 t 0 r /Helvetica findfont 22.829 sf 0 0 m (100) show NC gr  1 1 1 c 142 157 2089 784 bf black 2089 784 m 142 X s 2231 784 m 157 Y s 2231 941 m -142 X s 2089 941 m -157 Y s 1 1 1 c black
 gsave  711 984 1534 21 C 2136.67 911.645 t 0 r /Helvetica findfont 25.6826 sf 0 0 m (h20) show NC gr  2089 902 m 142 X s
 gsave  711 984 1534 21 C 2093.93 874.609 t 0 r /Helvetica findfont 19.9753 sf 0 0 m (Entries ) show NC gr 
 gsave  711 984 1534 21 C 2182.25 874.609 t 0 r /Helvetica findfont 19.9753 sf 0 0 m ( 357) show NC gr 
 gsave  711 984 1534 21 C 2093.93 834.725 t 0 r /Helvetica findfont 19.9753 sf 0 0 m (Mean  ) show NC gr 
 gsave  711 984 1534 21 C 2159.46 834.725 t 0 r /Helvetica findfont 19.9753 sf 0 0 m (  1.408) show NC gr 
 gsave  711 984 1534 21 C 2093.93 794.84 t 0 r /Helvetica findfont 19.9753 sf 0 0 m (RMS   ) show NC gr 
 gsave  711 984 1534 21 C 2156.61 794.84 t 0 r /Helvetica findfont 19.9753 sf 0 0 m ( 0.7271) show NC gr  1 0 0 c 1 1 1 c black 1 0 0 c 1606 844 m 113 X 63 Y s 1833 907 m -338 Y s 1833 569 m 114 X -377 Y 113 X -72 Y 114 X s black 1 1 1 c 497 54 1641
 946 bf black
 gsave  711 984 1534 21 C 1666.6 965.774 t 0 r /Helvetica findfont 19.9753 sf 0 0 m (Eta\255phi distance between a lepton and final quark ) show NC gr 
 gr  gr showpage
end
%%EOF
